<?xml version="1.0" standalone="no"?>
<!DOCTYPE svg PUBLIC "-//W3C//DTD SVG 1.1//EN" "http://www.w3.org/Graphics/SVG/1.1/DTD/svg11.dtd" >
<svg xmlns="http://www.w3.org/2000/svg">
<metadata>
<json>
{
	"fontFamily": "icomoon",
	"version": "Version 1.0",
	"majorVersion": 0,
	"fontId": "icomoon",
	"psName": "icomoon",
	"subFamily": "Regular",
	"fullName": "icomoon",
	"description": "Generated by IcoMoon"
}
</json>
</metadata>
<defs>
<font id="icomoon" horiz-adv-x="1024">
<font-face units-per-em="1024" ascent="960" descent="-64" />
<missing-glyph horiz-adv-x="1024" />
<glyph unicode="&#x20;" d="" horiz-adv-x="512" />
<glyph unicode="&#xe600;" d="M169.062 346.214c23.757-96.307 53.965-138.291 154.726-182.374 100.813-44.032 148.685-92.16 188.211-92.16s84.326 42.086 185.139 86.221c100.813 43.981 73.933 57.498 97.69 153.702l-282.829-137.523-342.938 172.134zM998.963 597.197l-426.24 238.694c-33.382 18.688-88.013 18.688-121.395 0l-426.291-238.694c-33.382-18.688-33.382-49.306 0-67.994l426.24-238.694c33.382-18.688 88.013-18.688 121.395 0l275.558 154.317-298.803 69.99c-11.469-2.867-24.115-4.454-37.427-4.454-53.811 0-97.434 25.958-97.434 57.958s43.622 58.010 97.434 58.010c41.779 0 77.363-15.718 91.187-37.683l316.467-103.834 79.309 44.39c33.382 18.688 33.382 49.306 0 67.994zM868.71 144.794c-3.226-19.61 65.69-52.019 72.243 5.581 29.645 259.635-21.299 334.387-21.299 334.387l-71.424-39.987c0 0.051 60.57-57.6 20.48-299.981z" />
<glyph unicode="&#xe601;" d="M512 952.32c-271.462 0-491.52-220.058-491.52-491.52s220.058-491.52 491.52-491.52c271.514 0 491.52 220.058 491.52 491.52s-220.006 491.52-491.52 491.52zM776.499 725.197l-0.102 0.102c0-0.051 0.102-0.102 0.102-0.102zM138.035 460.8c0 206.541 167.424 373.965 373.965 373.965 89.805 0 172.237-31.642 236.749-84.378l-526.285-526.234c-52.787 64.461-84.429 146.842-84.429 236.646zM247.501 196.403l0.102-0.102c-0.051 0.051-0.051 0.051-0.102 0.102zM512 86.784c-89.805 0-172.186 31.693-236.646 84.429l526.131 526.234c52.787-64.461 84.48-146.842 84.48-236.646 0.051-206.541-167.475-374.016-373.965-374.016z" />
<glyph unicode="&#xe602;" d="M819.2 870.4h-614.4c-56.32 0-102.4-46.080-102.4-102.4v-614.4c0-56.32 46.080-102.4 102.4-102.4h614.4c56.32 0 102.4 46.080 102.4 102.4v614.4c0 56.32-46.080 102.4-102.4 102.4zM668.723 215.603l-156.723 156.672-156.723-156.723-88.474 88.525 156.672 156.723-156.672 156.672 88.474 88.525 156.723-156.672 156.672 156.672 88.525-88.474-156.672-156.723 156.723-156.723-88.525-88.474z" />
<glyph unicode="&#xe603;" d="M819.2 870.4h-614.4c-56.32 0-102.4-46.080-102.4-102.4v-614.4c0-56.32 46.080-102.4 102.4-102.4h614.4c56.32 0 102.4 46.080 102.4 102.4v614.4c0 56.32-46.080 102.4-102.4 102.4zM768 409.6h-512v102.4h512v-102.4z" />
<glyph unicode="&#xe604;" d="M819.2 870.4h-614.4c-56.32 0-102.4-46.080-102.4-102.4v-614.4c0-56.32 46.080-102.4 102.4-102.4h614.4c56.32 0 102.4 46.080 102.4 102.4v614.4c0 56.32-46.080 102.4-102.4 102.4zM768 409.6h-204.8v-204.8h-102.4v204.8h-204.8v102.4h204.8v204.8h102.4v-204.8h204.8v-102.4z" />
<glyph unicode="&#xe605;" d="M778.189 512h-215.040v215.040c0 28.262-22.886 30.72-51.2 30.72-28.262 0-51.2-2.406-51.2-30.72v-215.040h-214.989c-28.314 0-30.72-22.938-30.72-51.2s2.406-51.2 30.72-51.2h214.989v-215.040c0-28.262 22.938-30.72 51.2-30.72 28.314 0 51.2 2.458 51.2 30.72v215.040h215.040c28.314 0 30.771 22.938 30.771 51.2s-2.458 51.2-30.771 51.2z" />
<glyph unicode="&#xe606;" d="M296.96 348.16v317.44h-194.56c-56.32 0-102.4-46.080-102.4-102.4v-307.2c0-56.32 46.080-102.4 102.4-102.4h51.2v-153.6l153.6 153.6h256c56.32 0 102.4 46.080 102.4 102.4v93.184c-3.277-0.717-6.758-1.075-10.24-1.075h-358.4zM921.6 921.6h-460.8c-56.32 0-102.4-46.080-102.4-102.4v-409.6h358.4l153.6-153.6v153.6h51.2c56.32 0 102.4 46.080 102.4 102.4v307.2c0 56.32-46.080 102.4-102.4 102.4z" />
<glyph unicode="&#xe607;" d="M819.2 819.2h-614.4c-56.32 0-102.4-46.080-102.4-102.4v-358.4c0-56.32 46.080-102.4 102.4-102.4h204.8l204.8-153.6v153.6h204.8c56.32 0 102.4 46.080 102.4 102.4v358.4c0 56.32-46.080 102.4-102.4 102.4z" />
<glyph unicode="&#xe608;" d="M348.314 0.051c-9.882 6.502 161.485 366.592 155.546 382.413-5.888 15.821-187.597 73.574-196.506 101.376-8.858 27.802 358.81 445.747 368.435 437.658 9.626-8.038-160.205-370.586-155.546-382.362s190.925-71.987 196.506-101.325c5.581-29.44-358.554-444.211-368.435-437.76z" />
<glyph unicode="&#xe609;" d="M672 64c17.696 0 32 14.304 32 32v448c0 17.696-14.304 32-32 32s-32-14.304-32-32v-448c0-17.696 14.304-32 32-32zM352 64c17.664 0 32 14.304 32 32v448c0 17.696-14.336 32-32 32s-32-14.304-32-32v-448c0-17.696 14.336-32 32-32zM928 768h-128v64c0 70.688-57.312 128-128 128h-320c-70.688 0-128-57.312-128-128v-64h-128l-96-96c0-17.696 14.336-32 32-32h96v-640c0-35.328 28.672-64 64-64h640c35.328 0 64 28.672 64 64v640h96c17.696 0 32 14.304 32 32l-96 96zM320 832c0 35.328 28.672 64 64 64h256c35.328 0 64-28.672 64-64v-64h-384v64zM832 32c0-17.696-14.304-32-32-32h-576c-17.664 0-32 14.304-32 32v608h640v-608zM512 64c17.696 0 32 14.304 32 32v448c0 17.696-14.304 32-32 32s-32-14.304-32-32v-448c0-17.696 14.304-32 32-32z" />
<glyph unicode="&#xe60a;" d="M864 960h-768c-52.8 0-96-43.2-96-96v-832c0-52.8 43.2-96 96-96h768c52.8 0 96 43.2 96 96v832c0 52.8-43.2 96-96 96zM832 64h-704v768h704v-768zM256 384h448v-64h-448zM256 256h448v-64h-448zM320 672c0 53.019 42.981 96 96 96s96-42.981 96-96c0-53.019-42.981-96-96-96-53.019 0-96 42.981-96 96zM480 576h-128c-52.8 0-96-28.8-96-64v-64h320v64c0 35.2-43.2 64-96 64z" />
<glyph unicode="&#xe60b;" d="M768 896h-128c-105.87 0-192-86.13-192-192v-192h-400c-26.4 0-48-21.6-48-48v-480c0-26.4 21.6-48 48-48h544c26.4 0 48 21.6 48 48v480c0 26.4-21.6 48-48 48h-16v192c0 35.29 28.71 64 64 64h128c35.29 0 64-28.71 64-64v-192h128v192c0 105.87-86.13 192-192 192zM384 64h-128l27.84 139.2c-16.808 11.532-27.84 30.874-27.84 52.8 0 35.346 28.654 64 64 64 35.346 0 64-28.654 64-64 0-21.926-11.032-41.268-27.84-52.8l27.84-139.2z" />
<glyph unicode="&#xe60c;" d="M448 165.49l-205.254 237.254 58.508 58.51 146.746-114.744 274.744 242.744 58.512-58.508zM831.772 832c0.078-0.066 0.162-0.15 0.228-0.23v-767.542c-0.066-0.078-0.15-0.162-0.228-0.228h-639.544c-0.080 0.066-0.162 0.15-0.228 0.228v767.544c0.066 0.080 0.15 0.162 0.23 0.228h-128.23v-768c0-70.4 57.6-128 128-128h640c70.4 0 128 57.6 128 128v768h-128.228zM640 832v64c0 35.346-28.654 64-64 64h-128c-35.346 0-64-28.654-64-64v-64h-128v-128h512v128h-128zM576 832h-128v64h128v-64z" />
<glyph unicode="&#xe60d;" d="M704 320c-64-64-64-128-128-128s-128 64-192 128-128 128-128 192 64 64 128 128-128 256-192 256-192-192-192-192c0-128 131.5-387.5 256-512s384-256 512-256c0 0 192 128 192 192s-192 256-256 192z" />
<glyph unicode="&#xe60e;" d="M1017.378 384.006c8.004-55.482 13.216-131.392-11.664-160.446-41.142-48.044-301.712-48.044-301.712 48.042 0 48.398 42.856 80.134 1.712 128.178-40.472 47.262-113.026 48.030-193.714 48.042-80.686-0.012-153.242-0.78-193.714-48.042-41.142-48.046 1.714-79.78 1.714-128.178 0-96.086-260.57-96.086-301.714-48.044-24.878 29.054-19.668 104.964-11.662 160.446 6.16 37.038 21.724 76.996 71.548 127.994 0 0.002 0.002 0.002 0.002 0.004 74.738 69.742 187.846 126.738 429.826 127.968v0.030c1.344 0 2.664-0.010 4-0.014 1.338 0.004 2.656 0.014 4 0.014v-0.028c241.98-1.23 355.088-58.226 429.826-127.968 0.002-0.002 0.002-0.004 0.002-0.004 49.824-50.996 65.39-90.954 71.55-127.994z" />
<glyph unicode="&#xe60f;" d="M928 832h-832c-52.8 0-96-43.2-96-96v-640c0-52.8 43.2-96 96-96h832c52.8 0 96 43.2 96 96v640c0 52.8-43.2 96-96 96zM398.74 409.628l-270.74-210.892v501.642l270.74-290.75zM176.38 704h671.24l-335.62-252-335.62 252zM409.288 398.302l102.712-110.302 102.71 110.302 210.554-270.302h-626.528l210.552 270.302zM625.26 409.628l270.74 290.75v-501.642l-270.74 210.892z" />
<glyph unicode="&#xe610;" d="M0-64h512v1024h-512v-1024zM320 832h128v-128h-128v128zM320 576h128v-128h-128v128zM320 320h128v-128h-128v128zM64 832h128v-128h-128v128zM64 576h128v-128h-128v128zM64 320h128v-128h-128v128zM576 640h448v-64h-448zM576-64h128v256h192v-256h128v576h-448z" />
<glyph unicode="&#xe611;" d="M256 640c0 141.385 114.615 256 256 256s256-114.615 256-256c0-141.385-114.615-256-256-256-141.385 0-256 114.615-256 256zM768 320h-512c-141.384 0-256-114.618-256-256v-64h1024v64c0 141.382-114.616 256-256 256z" />
<glyph unicode="&#xe612;" d="M480 896c-265.096 0-480-214.904-480-480 0-265.098 214.904-480 480-480 265.098 0 480 214.902 480 480 0 265.096-214.902 480-480 480zM751.59 256c8.58 40.454 13.996 83.392 15.758 128h127.446c-3.336-44.196-13.624-87.114-30.68-128h-112.524zM208.41 576c-8.58-40.454-13.996-83.392-15.758-128h-127.444c3.336 44.194 13.622 87.114 30.678 128h112.524zM686.036 576c9.614-40.962 15.398-83.854 17.28-128h-191.316v128h174.036zM512 640v187.338c14.59-4.246 29.044-11.37 43.228-21.37 26.582-18.74 52.012-47.608 73.54-83.486 14.882-24.802 27.752-52.416 38.496-82.484h-155.264zM331.232 722.484c21.528 35.878 46.956 64.748 73.54 83.486 14.182 10 28.638 17.124 43.228 21.37v-187.34h-155.264c10.746 30.066 23.616 57.68 38.496 82.484zM448 576v-128h-191.314c1.88 44.146 7.666 87.038 17.278 128h174.036zM95.888 256c-17.056 40.886-27.342 83.804-30.678 128h127.444c1.762-44.608 7.178-87.546 15.758-128h-112.524zM256.686 384h191.314v-128h-174.036c-9.612 40.96-15.398 83.854-17.278 128zM448 192v-187.34c-14.588 4.246-29.044 11.372-43.228 21.37-26.584 18.74-52.014 47.61-73.54 83.486-14.882 24.804-27.75 52.418-38.498 82.484h155.266zM628.768 109.516c-21.528-35.876-46.958-64.746-73.54-83.486-14.184-9.998-28.638-17.124-43.228-21.37v187.34h155.266c-10.746-30.066-23.616-57.68-38.498-82.484zM512 256v128h191.314c-1.88-44.146-7.666-87.040-17.28-128h-174.034zM767.348 448c-1.762 44.608-7.178 87.546-15.758 128h112.524c17.056-40.886 27.344-83.806 30.68-128h-127.446zM830.658 640h-95.9c-18.638 58.762-44.376 110.294-75.316 151.428 42.536-20.34 81.058-47.616 114.714-81.272 21.48-21.478 40.362-44.938 56.502-70.156zM185.844 710.156c33.658 33.658 72.18 60.932 114.714 81.272-30.942-41.134-56.676-92.666-75.316-151.428h-95.898c16.138 25.218 35.022 48.678 56.5 70.156zM129.344 192h95.898c18.64-58.762 44.376-110.294 75.318-151.43-42.536 20.34-81.058 47.616-114.714 81.274-21.48 21.478-40.364 44.938-56.502 70.156zM774.156 121.844c-33.656-33.658-72.18-60.934-114.714-81.274 30.942 41.134 56.678 92.668 75.316 151.43h95.9c-16.14-25.218-35.022-48.678-56.502-70.156z" />
<glyph unicode="&#xe613;" d="M927.812 960h-288.562c-52.906 0-126.796-30.606-164.204-68.014l-446.99-446.99c-37.408-37.408-37.408-98.624 0-136.032l344.91-344.906c37.408-37.41 98.622-37.41 136.030 0l446.99 446.988c37.408 37.41 68.014 111.302 68.014 164.204v288.562c0 52.904-43.286 96.188-96.188 96.188zM800 640c-53.020 0-96 42.98-96 96s42.98 96 96 96 96-42.98 96-96-42.98-96-96-96z" />
<glyph unicode="&#xe614;" d="M992 896h-224c-52.8 0-126.546-30.546-163.882-67.882l-376.236-376.236c-37.334-37.334-37.334-98.428 0-135.764l280.236-280.234c37.334-37.336 98.428-37.336 135.764 0l376.234 376.234c37.338 37.336 67.884 111.082 67.884 163.882v224c0 52.8-43.2 96-96 96zM864 576c-53.020 0-96 42.98-96 96s42.98 96 96 96 96-42.98 96-96-42.98-96-96-96zM86.626 361.374l342.378-342.378c-36.264-19.16-82.462-13.538-112.886 16.888l-280.236 280.234c-37.334 37.336-37.334 98.43 0 135.764l376.236 376.236c37.336 37.336 111.082 67.882 163.882 67.882l-489.374-489.372c-12.444-12.446-12.444-32.808 0-45.254z" horiz-adv-x="1088" />
<glyph unicode="&#xe615;" d="M0 832h128v-640h-128zM192 832h64v-640h-64zM320 832h64v-640h-64zM512 832h64v-640h-64zM768 832h64v-640h-64zM960 832h64v-640h-64zM640 832h32v-640h-32zM448 832h32v-640h-32zM864 832h32v-640h-32zM0 128h64v-64h-64zM192 128h64v-64h-64zM320 128h64v-64h-64zM640 128h64v-64h-64zM960 128h64v-64h-64zM768 128h128v-64h-128zM448 128h128v-64h-128z" />
<glyph unicode="&#xe616;" d="M448 165.49l-205.254 237.254 58.508 58.51 146.746-114.744 274.744 242.744 58.512-58.508zM831.772 832c0.078-0.066 0.162-0.15 0.228-0.23v-767.542c-0.066-0.078-0.15-0.162-0.228-0.228h-639.544c-0.080 0.066-0.162 0.15-0.228 0.228v767.544c0.066 0.080 0.15 0.162 0.23 0.228h-128.23v-768c0-70.4 57.6-128 128-128h640c70.4 0 128 57.6 128 128v768h-128.228zM640 832v64c0 35.346-28.654 64-64 64h-128c-35.346 0-64-28.654-64-64v-64h-128v-128h512v128h-128zM576 832h-128v64h128v-64z" />
<glyph unicode="&#xe617;" d="M896 448h-160l-224-224-224 224h-160l-128-256v-64h1024v64l-128 256zM0 64h1024v-64h-1024v64zM576 640v256h-128v-256h-224l288-288 288 288h-224z" />
<glyph unicode="&#xe618;" d="M0 64h1024v-64h-1024zM1024 192v-64h-1024v64l128 256h256v-128h256v128h256zM224 640l288 288 288-288h-224v-256h-128v256z" />
<glyph unicode="&#xe619;" d="M898.36 896h-770.36v-128h-93.64c-17.6 0-34.36-12.528-34.36-30.128v-64c0-17.6 16.76-33.872 34.36-33.872h93.64v-64h-93.64c-17.6 0-34.36-12.528-34.36-30.128v-64c0-17.6 16.76-33.872 34.36-33.872h93.64v-64h-93.64c-17.6 0-34.36-12.528-34.36-30.128v-64c0-17.598 16.76-33.872 34.36-33.872h93.64v-64h-93.64c-17.6 0-34.36-12.528-34.36-30.128v-64c0-17.6 16.76-33.872 34.36-33.872h93.64v-128h770.36c35.348 0 61.64 30.526 61.64 65.872v832c0 35.346-26.292 62.128-61.64 62.128zM320 0h-128v64h34.36c17.6 0 29.64 16.272 29.64 33.872v64c0 17.602-12.042 30.128-29.64 30.128h-34.36v64h34.36c17.6 0 29.64 16.272 29.64 33.872v64c0 17.602-12.042 30.128-29.64 30.128h-34.36v64h34.36c17.6 0 29.64 16.272 29.64 33.872v64c0 17.602-12.042 30.128-29.64 30.128h-34.36v64h34.36c17.6 0 29.64 16.272 29.64 33.872v64c0 17.602-12.040 30.128-29.64 30.128h-34.36v64h128v-832z" />
<glyph unicode="&#xe61a;" d="M928 832h-832c-52.8 0-96-43.2-96-96v-640c0-52.8 43.2-96 96-96h832c52.8 0 96 43.2 96 96v640c0 52.8-43.2 96-96 96zM398.74 409.628l-270.74-210.892v501.642l270.74-290.75zM176.38 704h671.24l-335.62-252-335.62 252zM409.288 398.302l102.712-110.302 102.71 110.302 210.554-270.302h-626.528l210.552 270.302zM625.26 409.628l270.74 290.75v-501.642l-270.74 210.892z" />
<glyph unicode="&#xe61b;" d="M544 960l-96-96 96-96-224-256h-224l176-176-272-360.616v-39.384h39.384l360.616 272 176-176v224l256 224 96-96 96 96-480 480zM448 416l-64 64 224 224 64-64-224-224z" />
<glyph unicode="&#xe61c;" d="M512 960c-176.732 0-320-143.268-320-320 0-320 320-704 320-704s320 384 320 704c0 176.732-143.27 320-320 320zM512 448c-106.040 0-192 85.96-192 192s85.96 192 192 192 192-85.96 192-192-85.96-192-192-192z" />
<glyph unicode="&#xe61d;" d="M320 768c0 106.039 85.961 192 192 192s192-85.961 192-192c0-106.039-85.961-192-192-192-106.039 0-192 85.961-192 192zM768.078 512h-35.424l-199.104-404.244 74.45 372.244-96 96-96-96 74.45-372.244-199.102 404.244h-35.424c-127.924 0-127.924-85.986-127.924-192v-320h768v320c0 106.014 0 192-127.922 192z" />
<glyph unicode="&#xe61e;" d="M512 960l-512-320h1024l-512 320zM800 576l32-64v-384h128v384l32 64h-192zM544 576l32-64v-384h128v384l32 64h-192zM288 576l32-64v-384h128v384l32 64h-192zM32 576l32-64v-384h128v384l32 64h-192zM32 64l-32-128h1024l-32 128h-960zM576 768c0-35.346-28.654-64-64-64s-64 28.654-64 64 28.654 64 64 64c35.346 0 64-28.654 64-64z" />
<glyph unicode="&#xe61f;" d="M512 960c-176.732 0-320-143.268-320-320 0-320 320-704 320-704s320 384 320 704c0 176.732-143.27 320-320 320zM512 448c-106.040 0-192 85.96-192 192s85.96 192 192 192 192-85.96 192-192-85.96-192-192-192z" />
<glyph unicode="&#xe620;" d="M512 960c-176.732 0-320-143.268-320-320 0-320 320-704 320-704s320 384 320 704c0 176.732-143.27 320-320 320zM512 444c-108.248 0-196 87.752-196 196s87.752 196 196 196 196-87.752 196-196-87.752-196-196-196zM388 640c0 68.483 55.517 124 124 124s124-55.517 124-124c0-68.483-55.517-124-124-124-68.483 0-124 55.517-124 124z" />
<glyph unicode="&#xe621;" d="M512 960c-282.77 0-512-229.23-512-512s229.23-512 512-512 512 229.23 512 512-229.23 512-512 512zM512 32c-229.75 0-416 186.25-416 416s186.25 416 416 416 416-186.25 416-416-186.25-416-416-416zM608 544l-288 160h-64v-64l160-288 288-160h64v64l-160 288zM512 384c-35.346 0-64 28.654-64 64s28.654 64 64 64c35.346 0 64-28.654 64-64 0-35.346-28.654-64-64-64z" />
<glyph unicode="&#xe622;" d="M928 832h-832c-52.8 0-96-43.2-96-96v-576c0-52.8 43.2-96 96-96h832c52.8 0 96 43.2 96 96v576c0 52.8-43.2 96-96 96zM96 768h832c17.346 0 32-14.654 32-32v-96h-896v96c0 17.346 14.654 32 32 32zM928 128h-832c-17.346 0-32 14.654-32 32v288h896v-288c0-17.346-14.654-32-32-32zM128 320h64v-128h-64zM256 320h64v-128h-64zM384 320h64v-128h-64z" />
<glyph unicode="&#xe623;" d="M219.429 292.571v-73.143h-73.143v73.143h73.143zM219.429 731.428v-73.143h-73.143v73.143h73.143zM658.286 731.428v-73.143h-73.143v73.143h73.143zM73.143 146.857h219.429v218.857h-219.429v-218.857zM73.143 585.143h219.429v219.429h-219.429v-219.429zM512 585.143h219.429v219.429h-219.429v-219.429zM365.714 438.857v-365.714h-365.714v365.714h365.714zM658.286 146.286v-73.143h-73.143v73.143h73.143zM804.571 146.286v-73.143h-73.143v73.143h73.143zM804.571 438.857v-219.429h-219.429v73.143h-73.143v-219.429h-73.143v365.714h219.429v-73.143h73.143v73.143h73.143zM365.714 877.714v-365.714h-365.714v365.714h365.714zM804.571 877.714v-365.714h-365.714v365.714h365.714z" horiz-adv-x="805" />
<glyph unicode="&#xe624;" d="M36 73.143h-36v804.571h36v-804.571zM72 73.714h-18.286v804h18.286v-804zM125.714 73.714h-17.714v804h17.714v-804zM215.429 73.714h-17.714v804h17.714v-804zM305.143 73.714h-35.429v804h35.429v-804zM377.143 73.714h-17.714v804h17.714v-804zM413.143 73.714h-17.714v804h17.714v-804zM449.143 73.714h-17.714v804h17.714v-804zM538.857 73.714h-36v804h36v-804zM628.571 73.714h-36v804h36v-804zM700.571 73.714h-36v804h36v-804zM772.571 73.714h-36v804h36v-804zM826.286 73.714h-36v804h36v-804zM934.286 73.714h-53.714v804h53.714v-804zM970.286 73.714h-18.286v804h18.286v-804zM1024 73.143h-36v804.571h36v-804.571z" />
<glyph unicode="&#xe625;" d="M256 694.857q0 30.286-21.429 51.714t-51.714 21.429-51.714-21.429-21.429-51.714 21.429-51.714 51.714-21.429 51.714 21.429 21.429 51.714zM865.714 365.714q0-30.286-21.143-51.429l-280.571-281.143q-22.286-21.143-52-21.143-30.286 0-51.429 21.143l-408.571 409.143q-21.714 21.143-36.857 57.714t-15.143 66.857v237.714q0 29.714 21.714 51.429t51.429 21.714h237.714q30.286 0 66.857-15.143t58.286-36.857l408.571-408q21.143-22.286 21.143-52z" horiz-adv-x="878" />
<glyph unicode="&#xe626;" d="M256 694.857q0 30.286-21.429 51.714t-51.714 21.429-51.714-21.429-21.429-51.714 21.429-51.714 51.714-21.429 51.714 21.429 21.429 51.714zM865.714 365.714q0-30.286-21.143-51.429l-280.571-281.143q-22.286-21.143-52-21.143-30.286 0-51.429 21.143l-408.571 409.143q-21.714 21.143-36.857 57.714t-15.143 66.857v237.714q0 29.714 21.714 51.429t51.429 21.714h237.714q30.286 0 66.857-15.143t58.286-36.857l408.571-408q21.143-22.286 21.143-52zM1085.143 365.714q0-30.286-21.143-51.429l-280.571-281.143q-22.286-21.143-52-21.143-20.571 0-33.714 8t-30.286 25.714l268.571 268.571q21.143 21.143 21.143 51.429 0 29.714-21.143 52l-408.571 408q-21.714 21.714-58.286 36.857t-66.857 15.143h128q30.286 0 66.857-15.143t58.286-36.857l408.571-408q21.143-22.286 21.143-52z" horiz-adv-x="1097" />
<glyph unicode="&#xe627;" d="M512 870.298l-266.24-249.856h168.96v-262.144h194.56v262.144h169.011l-266.291 249.856zM990.208 279.347l-163.021 109.67h-100.506l174.080-133.53h-181.504c-5.222 0-9.882-2.662-12.288-6.81l-41.779-114.432h-306.381l-41.83 114.432c-2.304 4.147-7.066 6.81-12.288 6.81h-181.453l174.131 133.53h-100.557l-162.97-109.67c-24.269-14.49-38.758-47.923-32.256-74.189l28.723-157.389c6.502-26.317 35.379-47.872 64.051-47.872h835.226c28.774 0 57.6 21.555 64.102 47.872l28.723 157.389c6.605 26.317-7.936 59.699-32.205 74.189z" />
<glyph unicode="&#xe628;" d="M448 165.49l-205.254 237.254 58.508 58.51 146.746-114.744 274.744 242.744 58.512-58.508zM831.772 832c0.078-0.066 0.162-0.15 0.228-0.23v-767.542c-0.066-0.078-0.15-0.162-0.228-0.228h-639.544c-0.080 0.066-0.162 0.15-0.228 0.228v767.544c0.066 0.080 0.15 0.162 0.23 0.228h-128.23v-768c0-70.4 57.6-128 128-128h640c70.4 0 128 57.6 128 128v768h-128.228zM640 832v64c0 35.346-28.654 64-64 64h-128c-35.346 0-64-28.654-64-64v-64h-128v-128h512v128h-128zM576 832h-128v64h128v-64z" />
<glyph unicode="&#xe629;" d="M928 832h-832c-52.8 0-96-43.2-96-96v-576c0-52.8 43.2-96 96-96h832c52.8 0 96 43.2 96 96v576c0 52.8-43.2 96-96 96zM96 768h832c17.346 0 32-14.654 32-32v-96h-896v96c0 17.346 14.654 32 32 32zM928 128h-832c-17.346 0-32 14.654-32 32v288h896v-288c0-17.346-14.654-32-32-32zM128 320h64v-128h-64zM256 320h64v-128h-64zM384 320h64v-128h-64z" />
<glyph unicode="&#xe62a;" d="M758.784 233.062c-126.208 45.978-166.554 84.787-166.554 167.885 0 49.869 38.554 33.587 55.45 124.928 7.014 37.888 41.062 0.614 47.616 87.091 0 34.458-18.586 43.059-18.586 43.059s9.472 51.046 13.158 90.266c4.506 48.947-28.262 175.309-203.469 175.309-175.155 0-208.026-126.362-203.418-175.309 3.686-39.219 13.158-90.266 13.158-90.266s-18.637-8.55-18.637-43.059c6.502-86.477 40.55-49.203 47.565-87.091 16.947-91.341 55.501-75.059 55.501-124.928 0-83.098-40.346-121.907-166.554-167.885-126.669-46.080-208.896-93.133-208.896-125.235 0-32.051 0-107.776 0-107.776h962.56c0 0 0 75.725 0 107.776s-82.278 79.104-208.896 125.235z" />
<glyph unicode="&#xe62b;" d="M1024 10.24c0 0-1.997 193.894-13.875 213.965-17.664 29.952-58.675 50.483-134.861 82.33-75.93 31.744-100.25 58.573-100.25 115.866 0 34.458 23.194 23.194 33.382 86.221 4.198 26.163 24.678 0.461 28.621 60.109 0 23.808-11.162 29.747-11.162 29.747s5.632 35.226 7.885 62.31c2.765 33.792-17.050 120.986-122.47 120.986s-125.133-87.245-122.419-120.986c2.202-27.085 7.834-62.31 7.834-62.31s-11.162-5.939-11.162-29.747c3.942-59.699 24.422-33.997 28.672-60.109 10.138-63.027 33.331-51.763 33.331-86.221 0-38.963-11.264-63.846-42.342-85.709 165.888-83.046 188.16-99.994 188.16-174.234v-152.218h230.656zM523.469 277.76c-101.325 42.291-133.632 78.029-133.632 154.47 0 45.875 30.925 30.925 44.493 114.995 5.581 34.867 32.973 0.563 38.144 80.128 0 31.744-14.899 39.629-14.899 39.629s7.578 46.95 10.547 83.098c3.686 44.954-22.733 161.28-163.277 161.28-140.544 0-166.912-116.275-163.226-161.28 2.97-36.147 10.496-83.098 10.496-83.098s-14.848-7.885-14.848-39.629c5.274-79.616 32.563-45.312 38.195-80.128 13.568-84.070 44.493-69.069 44.493-114.995 0-76.442-32.41-112.179-133.632-154.47-30.874-12.902-86.323-32.922-86.323-80.947v-186.573h711.373c0 0 0 110.336 0 139.827 0 43.878-86.374 85.197-187.904 127.693z" />
<glyph unicode="&#xe62c;" d="M633.702 233.062c-127.539 45.978-168.294 84.787-168.294 167.885 0 49.869 38.963 33.587 56.064 124.928 7.117 37.888 41.523 0.614 48.026 87.091 0 34.458-18.739 43.059-18.739 43.059s9.574 51.046 13.261 90.266c4.608 48.947-28.57 175.309-205.619 175.309s-210.227-126.362-205.619-175.309c3.738-39.27 13.312-90.266 13.312-90.266s-18.79-8.55-18.79-43.059c6.605-86.477 41.011-49.203 48.026-87.091 17.152-91.341 56.115-75.059 56.115-124.928 0-83.098-40.806-121.907-168.346-167.885-15.36-5.478-51.968-14.080-83.098-27.546v-205.517h819.2c0 0 0 75.725 0 107.776s-57.498 79.155-185.498 125.286zM870.4 512v153.6h-102.4v-153.6h-153.6v-102.4h153.6v-153.6h102.4v153.6h153.6v102.4h-153.6z" />
<glyph unicode="&#xe62d;" d="M921.6 870.4h-819.2c-56.32 0-102.4-46.080-102.4-102.4v-614.4c0-56.32 46.080-102.4 102.4-102.4h819.2c56.371 0 102.4 46.080 102.4 102.4v614.4c0 56.32-46.029 102.4-102.4 102.4zM921.6 153.6h-819.2v614.4h819.2v-614.4zM460.8 353.28h-256v-92.16h256v92.16zM460.8 506.88h-256v-92.16h256v92.16zM460.8 660.48h-256v-92.16h256v92.16zM814.080 332.8c0 0-87.040 22.733-87.040 67.482 0 42.598 56.371 60.518 56.371 147.558 0 70.656-21.504 112.64-92.211 112.64s-92.16-41.933-92.16-112.64c0-87.040 56.32-104.96 56.32-147.558 0-44.749-86.989-67.482-86.989-67.482-5.171 0-5.171-71.68-5.171-71.68h256c0 0 0 71.68-5.12 71.68z" />
<glyph unicode="&#xe62e;" d="M399.36 344.525l-204.8 81.971v-69.325l204.8-81.971v69.325zM399.36 557.261l-204.8 81.92v-69.325l204.8-81.92v69.325zM950.323 912.794c-14.029 9.523-31.949 11.469-47.718 5.171l-390.605-156.262-390.605 156.262c-15.77 6.298-33.638 4.352-47.718-5.171-14.029-9.523-22.477-25.395-22.477-42.394v-655.36c0-20.941 12.749-39.731 32.154-47.565l408.73-163.482c0 0 8.397-2.714 9.933-3.021 3.328-0.614 6.656-0.973 9.984-0.973 3.277 0 6.656 0.358 9.933 1.024 1.536 0.307 9.933 3.072 9.933 3.072l408.678 163.43c19.507 7.782 32.256 26.573 32.256 47.514v655.36c0 16.998-8.448 32.87-22.477 42.394zM460.8 104.755l-327.68 131.072v573.85l327.68-131.123v-573.798zM890.88 235.776l-327.68-131.072v573.85l327.68 131.123v-573.901zM829.44 426.496l-204.851-81.971v-69.325l204.851 81.971v69.325zM829.44 639.181l-204.851-81.92v-69.325l204.851 81.92v69.325z" />
<glyph unicode="&#xe62f;" d="M868.762 716.8c0 51.2-50.944 51.2-50.944 51.2h-611.635c0 0-50.944 0-50.944-51.2v-51.2h713.523v51.2zM715.827 870.4h-407.706c0 0-50.944 0-50.944-51.2h509.645c0 51.2-50.995 51.2-50.995 51.2zM970.65 665.6c-30.157 30.31-30.157 30.31-30.157 30.31v-81.51h-857.037v81.51c0 0 0 0-30.157-30.31s-51.763-38.451-39.578-102.451c12.032-63.744 70.554-413.44 79.206-460.749 9.574-51.917 62.31-51.2 62.31-51.2h713.523c0 0 52.736-0.717 62.31 51.2 8.704 47.309 67.174 397.005 79.258 460.749 12.134 64-9.472 72.141-39.68 102.451zM715.827 389.12c0 0 0-51.2-50.995-51.2h-305.715c-50.944 0-50.944 51.2-50.944 51.2v102.4h71.373v-81.92h264.858v81.92h71.475v-102.4z" />
<glyph unicode="&#xe630;" d="M367.872-8.704c40.397-26.112 87.194-43.776 144.128-42.394 56.934-1.382 103.68 16.282 144.077 42.394v105.984h-288.205v-105.984zM650.035 158.771c0 223.027 237.107 294.4 219.341 516.557-11.162 140.186-106.138 297.472-357.376 297.472s-346.214-157.286-357.376-297.472c-17.766-222.208 219.29-293.53 219.29-516.557h276.122zM263.066 667.238c10.65 133.069 101.171 200.55 248.934 200.55s238.285-67.482 248.883-200.55c5.786-72.858-36.096-121.446-92.672-201.011-41.626-58.675-90.88-127.949-113.92-218.163h-84.634c-23.040 90.214-72.243 159.437-113.971 218.163-56.525 79.616-98.406 128.154-92.621 201.011z" />
<glyph unicode="&#xe631;" d="M512 354.355c122.368 0 224.819 41.574 231.014 95.898-18.176 51.046-38.042 106.701-57.549 161.434-13.517-39.014-88.32-66.56-173.466-66.56s-159.898 27.494-173.517 66.509c-19.507-54.733-39.27-110.336-57.498-161.434 6.195-54.272 108.595-95.846 231.014-95.846zM512 697.651c57.498 0 110.95 17.818 126.618 45.466-21.555 60.57-40.090 112.486-51.814 145.254-7.731 21.862-43.008 33.229-74.803 33.229s-67.072-11.366-74.803-33.178c-11.725-32.768-30.208-84.736-51.814-145.254 15.667-27.699 69.12-45.517 126.618-45.517zM961.536 303.821l-192.256 77.466 22.17-61.798c-1.126-65.434-128.256-117.658-279.45-117.658s-278.323 52.224-279.398 117.658l22.118 61.798-192.256-77.466c-53.914-21.76-56.166-61.952-5.069-89.344l361.574-193.894c51.149-27.392 134.861-27.392 186.010 0l361.574 193.894c51.2 27.392 48.896 67.584-5.018 89.344z" />
<glyph unicode="&#xe632;" d="M384 896h640v-128h-640v128zM384 512h640v-128h-640v128zM384 128h640v-128h-640v128zM0 832c0 70.692 57.308 128 128 128s128-57.308 128-128c0-70.692-57.308-128-128-128-70.692 0-128 57.308-128 128zM0 448c0 70.692 57.308 128 128 128s128-57.308 128-128c0-70.692-57.308-128-128-128-70.692 0-128 57.308-128 128zM0 64c0 70.692 57.308 128 128 128s128-57.308 128-128c0-70.692-57.308-128-128-128-70.692 0-128 57.308-128 128z" />
<glyph unicode="&#xe633;" d="M976 192h-16v208c0 61.756-50.242 112-112 112h-272v128h16c26.4 0 48 21.6 48 48v160c0 26.4-21.6 48-48 48h-160c-26.4 0-48-21.6-48-48v-160c0-26.4 21.6-48 48-48h16v-128h-272c-61.756 0-112-50.244-112-112v-208h-16c-26.4 0-48-21.6-48-48v-160c0-26.4 21.6-48 48-48h160c26.4 0 48 21.6 48 48v160c0 26.4-21.6 48-48 48h-16v192h256v-192h-16c-26.4 0-48-21.6-48-48v-160c0-26.4 21.6-48 48-48h160c26.4 0 48 21.6 48 48v160c0 26.4-21.6 48-48 48h-16v192h256v-192h-16c-26.4 0-48-21.6-48-48v-160c0-26.4 21.6-48 48-48h160c26.4 0 48 21.6 48 48v160c0 26.4-21.6 48-48 48zM192 0h-128v128h128v-128zM576 0h-128v128h128v-128zM448 704v128h128v-128h-128zM960 0h-128v128h128v-128z" />
<glyph unicode="&#xe634;" d="M384 448h-320v128h320v128l192-192-192-192zM1024 960v-832l-384-192v192h-384v256h64v-192h320v576l256 128h-576v-256h-64v320z" />
<glyph unicode="&#xe635;" d="M768 320v128h-320v128h320v128l192-192zM704 384v-256h-320v-192l-384 192v832h704v-320h-64v256h-512l256-128v-576h256v192z" />
<glyph unicode="&#xe636;" d="M512 960c-282.77 0-512-229.23-512-512s229.23-512 512-512 512 229.23 512 512-229.23 512-512 512zM512 64c-212.078 0-384 171.922-384 384s171.922 384 384 384c212.078 0 384-171.922 384-384 0-212.078-171.922-384-384-384zM320 448c0 106.039 85.961 192 192 192s192-85.961 192-192c0-106.039-85.961-192-192-192-106.039 0-192 85.961-192 192z" />
<glyph unicode="&#xe637;" d="M512 960c-282.77 0-512-229.23-512-512s229.23-512 512-512 512 229.23 512 512-229.23 512-512 512zM512 64c-212.078 0-384 171.922-384 384s171.922 384 384 384c212.078 0 384-171.922 384-384 0-212.078-171.922-384-384-384z" />
<glyph unicode="&#xe638;" d="M365.714 621.714q0-45.714-32-77.714t-77.714-32-77.714 32-32 77.714 32 77.714 77.714 32 77.714-32 32-77.714zM950.857 402.286v-256h-804.571v109.714l182.857 182.857 91.429-91.429 292.571 292.571zM1005.714 804.571h-914.286q-7.429 0-12.857-5.429t-5.429-12.857v-694.857q0-7.429 5.429-12.857t12.857-5.429h914.286q7.429 0 12.857 5.429t5.429 12.857v694.857q0 7.429-5.429 12.857t-12.857 5.429zM1097.143 786.286v-694.857q0-37.714-26.857-64.571t-64.571-26.857h-914.286q-37.714 0-64.571 26.857t-26.857 64.571v694.857q0 37.714 26.857 64.571t64.571 26.857h914.286q37.714 0 64.571-26.857t26.857-64.571z" horiz-adv-x="1097" />
<glyph unicode="&#xe639;" d="M0 960v-1024h1024v1024h-1024zM960 0h-896v896h896v-896z" />
<glyph unicode="&#xe63a;" d="M0 960v-1024h1024v1024h-1024zM960 0h-896v896h896v-896zM256 704h512v-512h-512z" />
<glyph unicode="&#xe63b;" d="M0 960v-1024h1024v1024h-1024zM960 0h-896v896h896v-896zM768 736l-320-320-192 192-128-128 320-320 448 448-128 128z" />
<glyph unicode="&#xe63c;" d="M864 960c88.364 0 160-71.634 160-160 0-36.020-11.91-69.258-32-96l-64-64-224 224 64 64c26.742 20.090 59.978 32 96 32zM64 224l-64-288 288 64 592 592-224 224-592-592zM715.578 596.422l-448-448-55.156 55.156 448 448 55.156-55.156z" />
<glyph unicode="&#xe641;" d="M25.714 7.428q-10.857-10.857-18.286-7.429t-7.429 18.286v841.143q0 14.857 7.429 18.286t18.286-7.429l405.714-405.714q4.571-4.571 7.429-10.857v405.714q0 14.857 7.429 18.286t18.286-7.429l405.714-405.714q4.571-4.571 7.429-10.857v387.429q0 14.857 10.857 25.714t25.714 10.857h73.143q14.857 0 25.714-10.857t10.857-25.714v-804.571q0-14.857-10.857-25.714t-25.714-10.857h-73.143q-14.857 0-25.714 10.857t-10.857 25.714v387.429q-2.857-5.714-7.429-10.857l-405.714-405.714q-10.857-10.857-18.286-7.429t-7.429 18.286v405.714q-2.857-5.714-7.429-10.857z" />
<glyph unicode="&#xe642;" d="M25.714 7.428q-10.857-10.857-18.286-7.429t-7.429 18.286v841.143q0 14.857 7.429 18.286t18.286-7.429l405.714-405.714q4.571-4.571 7.429-10.857v387.429q0 14.857 10.857 25.714t25.714 10.857h73.143q14.857 0 25.714-10.857t10.857-25.714v-804.571q0-14.857-10.857-25.714t-25.714-10.857h-73.143q-14.857 0-25.714 10.857t-10.857 25.714v387.429q-2.857-5.714-7.429-10.857z" horiz-adv-x="585" />
<glyph unicode="&#xe644;" d="M424 52l-372.571 372q-21.143 21.143-21.143 51.714t21.143 51.714l372.571 372q21.143 21.143 51.714 21.143t51.714-21.143l42.857-42.857q21.143-21.143 21.143-51.714t-21.143-51.714l-277.714-277.714 277.714-277.143q21.143-21.714 21.143-52t-21.143-51.429l-42.857-42.857q-21.143-21.143-51.714-21.143t-51.714 21.143z" horiz-adv-x="658" />
<glyph unicode="&#xe645;" d="M628 475.428q0-29.714-21.143-52l-372.571-372q-21.143-21.143-51.429-21.143t-51.429 21.143l-43.429 42.857q-21.143 22.286-21.143 52 0 30.286 21.143 51.429l277.714 277.714-277.714 277.143q-21.143 22.286-21.143 52 0 30.286 21.143 51.429l43.429 42.857q20.571 21.714 51.429 21.714t51.429-21.714l372.571-372q21.143-21.143 21.143-51.429z" horiz-adv-x="658" />
<glyph unicode="&#xe646;" d="M592 512h-16v192c0 105.87-86.13 192-192 192h-128c-105.87 0-192-86.13-192-192v-192h-16c-26.4 0-48-21.6-48-48v-480c0-26.4 21.6-48 48-48h544c26.4 0 48 21.6 48 48v480c0 26.4-21.6 48-48 48zM384 64h-128l27.84 139.2c-16.808 11.532-27.84 30.874-27.84 52.8 0 35.346 28.654 64 64 64 35.346 0 64-28.654 64-64 0-21.926-11.032-41.268-27.84-52.8l27.84-139.2zM448 512h-256v192c0 35.29 28.71 64 64 64h128c35.29 0 64-28.71 64-64v-192z" />
<glyph unicode="&#xe64b;" d="M992.262 88.604l-242.552 206.294c-25.074 22.566-51.89 32.926-73.552 31.926 57.256 67.068 91.842 154.078 91.842 249.176 0 212.078-171.922 384-384 384-212.076 0-384-171.922-384-384 0-212.078 171.922-384 384-384 95.098 0 182.108 34.586 249.176 91.844-1-21.662 9.36-48.478 31.926-73.552l206.294-242.552c35.322-39.246 93.022-42.554 128.22-7.356s31.892 92.898-7.354 128.22zM384 320c-141.384 0-256 114.616-256 256s114.616 256 256 256 256-114.616 256-256-114.614-256-256-256zM192 640h384v-128h-384z" />
<glyph unicode="&#xe64c;" d="M992.262 88.604l-242.552 206.294c-25.074 22.566-51.89 32.926-73.552 31.926 57.256 67.068 91.842 154.078 91.842 249.176 0 212.078-171.922 384-384 384-212.076 0-384-171.922-384-384 0-212.078 171.922-384 384-384 95.098 0 182.108 34.586 249.176 91.844-1-21.662 9.36-48.478 31.926-73.552l206.294-242.552c35.322-39.246 93.022-42.554 128.22-7.356s31.892 92.898-7.354 128.22zM384 320c-141.384 0-256 114.616-256 256s114.616 256 256 256 256-114.616 256-256-114.614-256-256-256zM448 768h-128v-128h-128v-128h128v-128h128v128h128v128h-128z" />
<glyph unicode="&#xe659;" d="M846.857 350.857q26.286-14.857 34-44.286t-7.143-55.714l-36.571-62.857q-14.857-26.286-44.286-34t-55.714 7.143l-152 87.429v-175.429q0-29.714-21.714-51.429t-51.429-21.714h-73.143q-29.714 0-51.429 21.714t-21.714 51.429v175.429l-152-87.429q-26.286-14.857-55.714-7.143t-44.286 34l-36.571 62.857q-14.857 26.286-7.143 55.714t34 44.286l152 88-152 88q-26.286 14.857-34 44.286t7.143 55.714l36.571 62.857q14.857 26.286 44.286 34t55.714-7.143l152-87.429v175.429q0 29.714 21.714 51.429t51.429 21.714h73.143q29.714 0 51.429-21.714t21.714-51.429v-175.429l152 87.429q26.286 14.857 55.714 7.143t44.286-34l36.571-62.857q14.857-26.286 7.143-55.714t-34-44.286l-152-88z" horiz-adv-x="951" />
<glyph unicode="&#xe673;" d="M512 438.857q0 60.571-42.857 103.429t-103.429 42.857-103.429-42.857-42.857-103.429 42.857-103.429 103.429-42.857 103.429 42.857 42.857 103.429zM950.857 146.286q0 29.714-21.714 51.429t-51.429 21.714-51.429-21.714-21.714-51.429q0-30.286 21.429-51.714t51.714-21.429 51.714 21.429 21.429 51.714zM950.857 731.428q0 29.714-21.714 51.429t-51.429 21.714-51.429-21.714-21.714-51.429q0-30.286 21.429-51.714t51.714-21.429 51.714 21.429 21.429 51.714zM731.429 490.857v-105.714q0-5.714-4-11.143t-9.143-6l-88.571-13.714q-6.286-20-18.286-43.429 19.429-27.429 51.429-65.714 4-5.714 4-11.429 0-6.857-4-10.857-13.143-17.143-47.143-51.143t-44.857-34q-6.286 0-12 4l-65.714 51.429q-21.143-10.857-44-17.714-6.286-61.714-13.143-88.571-4-13.714-17.143-13.714h-106.286q-6.286 0-11.429 4.286t-5.714 10l-13.143 87.429q-19.429 5.714-42.857 17.714l-67.429-50.857q-4-4-11.429-4-6.286 0-12 4.571-82.286 76-82.286 91.429 0 5.143 4 10.857 5.714 8 23.429 30.286t26.857 34.857q-13.143 25.143-20 46.857l-86.857 13.714q-5.714 0.571-9.714 5.429t-4 11.143v105.714q0 5.714 4 11.143t9.143 6l88.571 13.714q6.286 20 18.286 43.429-19.429 27.429-51.429 65.714-4 6.286-4 11.429 0 6.857 4 11.429 12.571 17.143 46.857 50.857t45.143 33.714q6.286 0 12-4l65.714-51.429q19.429 10.286 44 18.286 6.286 61.714 13.143 88 4 13.714 17.143 13.714h106.286q6.286 0 11.429-4.286t5.714-10l13.143-87.429q19.429-5.714 42.857-17.714l67.429 50.857q4.571 4 11.429 4 6.286 0 12-4.571 82.286-76 82.286-91.429 0-5.143-4-10.857-6.857-9.143-24-30.857t-25.714-34.286q13.143-27.429 19.429-46.857l86.857-13.143q5.714-1.143 9.714-6t4-11.143zM1097.143 186.286v-80q0-9.143-85.143-17.714-6.857-15.429-17.143-29.714 29.143-64.571 29.143-78.857 0-2.286-2.286-4-69.714-40.571-70.857-40.571-4.571 0-26.286 26.857t-29.714 38.857q-11.429-1.143-17.143-1.143t-17.143 1.143q-8-12-29.714-38.857t-26.286-26.857q-1.143 0-70.857 40.571-2.286 1.714-2.286 4 0 14.286 29.143 78.857-10.286 14.286-17.143 29.714-85.143 8.571-85.143 17.714v80q0 9.143 85.143 17.714 7.429 16.571 17.143 29.714-29.143 64.571-29.143 78.857 0 2.286 2.286 4 2.286 1.143 20 11.429t33.714 19.429 17.143 9.143q4.571 0 26.286-26.571t29.714-38.571q11.429 1.143 17.143 1.143t17.143-1.143q29.143 40.571 52.571 64l3.429 1.143q2.286 0 70.857-40 2.286-1.714 2.286-4 0-14.286-29.143-78.857 9.714-13.143 17.143-29.714 85.143-8.571 85.143-17.714zM1097.143 771.428v-80q0-9.143-85.143-17.714-6.857-15.429-17.143-29.714 29.143-64.571 29.143-78.857 0-2.286-2.286-4-69.714-40.571-70.857-40.571-4.571 0-26.286 26.857t-29.714 38.857q-11.429-1.143-17.143-1.143t-17.143 1.143q-8-12-29.714-38.857t-26.286-26.857q-1.143 0-70.857 40.571-2.286 1.714-2.286 4 0 14.286 29.143 78.857-10.286 14.286-17.143 29.714-85.143 8.571-85.143 17.714v80q0 9.143 85.143 17.714 7.429 16.571 17.143 29.714-29.143 64.571-29.143 78.857 0 2.286 2.286 4 2.286 1.143 20 11.429t33.714 19.429 17.143 9.143q4.571 0 26.286-26.571t29.714-38.571q11.429 1.143 17.143 1.143t17.143-1.143q29.143 40.571 52.571 64l3.429 1.143q2.286 0 70.857-40 2.286-1.714 2.286-4 0-14.286-29.143-78.857 9.714-13.143 17.143-29.714 85.143-8.571 85.143-17.714z" horiz-adv-x="1097" />
<glyph unicode="&#xe68f;" d="M786.286 438.857l78.857-77.143q17.143-16 11.429-40-6.857-23.429-29.714-29.143l-107.429-27.429 30.286-106.286q6.857-23.429-10.857-40-16.571-17.714-40-10.857l-106.286 30.286-27.429-107.429q-5.714-22.857-29.143-29.714-6.857-1.143-10.857-1.143-17.714 0-29.143 12.571l-77.143 78.857-77.143-78.857q-16-17.143-40-11.429-23.429 6.286-29.143 29.714l-27.429 107.429-106.286-30.286q-23.429-6.857-40 10.857-17.714 16.571-10.857 40l30.286 106.286-107.429 27.429q-22.857 5.714-29.714 29.143-5.714 24 11.429 40l78.857 77.143-78.857 77.143q-17.143 16-11.429 40 6.857 23.429 29.714 29.143l107.429 27.429-30.286 106.286q-6.857 23.429 10.857 40 16.571 17.714 40 10.857l106.286-30.286 27.429 107.429q5.714 23.429 29.143 29.143 23.429 6.857 40-10.857l77.143-79.429 77.143 79.429q16.571 17.143 40 10.857 23.429-5.714 29.143-29.143l27.429-107.429 106.286 30.286q23.429 6.857 40-10.857 17.714-16.571 10.857-40l-30.286-106.286 107.429-27.429q22.857-5.714 29.714-29.143 5.714-24-11.429-40z" horiz-adv-x="878" />
<glyph unicode="&#xe6ac;" d="M575.87-64h-191.87v512h-128v176.45l128 0.058-0.208 103.952c0 143.952 39.034 231.54 208.598 231.54h141.176v-176.484h-88.23c-66.032 0-69.206-24.656-69.206-70.684l-0.262-88.324h158.69l-18.704-176.45-139.854-0.058-0.13-512z" />
<glyph unicode="&#xe6ad;" d="M853.344 960h-682.66c-93.872 0-170.684-76.814-170.684-170.688v-682.626c0-93.938 76.812-170.686 170.684-170.686l682.66 0.002c93.876 0 170.656 76.746 170.656 170.688v682.622c0 93.874-76.782 170.688-170.656 170.688zM870.592 448h-166.592v-448h-192v448h-92.526v146.564h92.526v95.186c0 129.342 55.792 206.25 207.87 206.25h175.244v-158.57h-143.13c-42.482 0.070-47.752-22.152-47.752-63.512l-0.232-79.354h192l-25.408-146.564z" />
<glyph unicode="&#xe6ae;" d="M512 960c282.77 0 512-229.23 512-512 0-261.094-195.438-476.53-448-508.026v380.026h176l16 128h-192v64c0 35.346 28.654 64 64 64h128v128h-128c-106.040 0-192-85.96-192-192v-64h-96v-128h96v-380.026c-252.562 31.496-448 246.932-448 508.026 0 282.77 229.23 512 512 512z" />
<glyph unicode="&#xe6af;" d="M1024 765.582c-37.676-16.708-78.164-28.002-120.66-33.080 43.372 26 76.686 67.17 92.372 116.23-40.596-24.078-85.556-41.56-133.41-50.98-38.32 40.83-92.922 66.34-153.346 66.34-116.022 0-210.088-94.058-210.088-210.078 0-16.466 1.858-32.5 5.44-47.878-174.6 8.764-329.402 92.4-433.018 219.506-18.084-31.028-28.446-67.116-28.446-105.618 0-72.888 37.088-137.192 93.46-174.866-34.438 1.092-66.832 10.542-95.154 26.278-0.020-0.876-0.020-1.756-0.020-2.642 0-101.788 72.418-186.696 168.522-206-17.626-4.8-36.188-7.372-55.348-7.372-13.538 0-26.698 1.32-39.528 3.772 26.736-83.46 104.32-144.206 196.252-145.896-71.9-56.35-162.486-89.934-260.916-89.934-16.958 0-33.68 0.994-50.116 2.94 92.972-59.61 203.402-94.394 322.042-94.394 386.422 0 597.736 320.124 597.736 597.744 0 9.108-0.206 18.168-0.61 27.18 41.056 29.62 76.672 66.62 104.836 108.748z" />
<glyph unicode="&#xe6b0;" d="M853.342 960h-682.656c-93.874 0-170.686-76.81-170.686-170.69v-682.622c0-93.938 76.812-170.688 170.686-170.688h682.656c93.876 0 170.658 76.75 170.658 170.69v682.62c0 93.88-76.782 170.69-170.658 170.69zM838.052 618.166c0.328-7.342 0.49-14.728 0.49-22.148 0-226.214-169.216-487.068-478.658-487.068-95.004 0-183.434 28.348-257.886 76.918 13.16-1.588 26.552-2.394 40.13-2.394 78.822 0 151.358 27.37 208.934 73.282-73.616 1.38-135.744 50.876-157.154 118.882 10.274-2 20.812-3.074 31.652-3.074 15.344 0 30.206 2.096 44.32 6.008-76.96 15.732-134.95 84.916-134.95 167.856 0 0.722 0 1.438 0.016 2.152 22.68-12.82 48.624-20.52 76.2-21.41-45.142 30.698-74.842 83.092-74.842 142.488 0 31.37 8.294 60.778 22.778 86.058 82.974-103.57 206.936-171.72 346.754-178.862-2.87 12.532-4.358 25.596-4.358 39.014 0 94.538 75.326 171.18 168.23 171.18 48.39 0 92.118-20.786 122.802-54.058 38.32 7.676 74.324 21.92 106.832 41.542-12.562-39.976-39.234-73.522-73.966-94.71 34.026 4.138 66.452 13.34 96.62 26.954-22.546-34.324-51.070-64.476-83.944-88.61z" />
<glyph unicode="&#xe6b1;" d="M512 960c-282.77 0-512-229.23-512-512s229.23-512 512-512 512 229.23 512 512-229.23 512-512 512zM806.242 598.912c0.292-6.508 0.442-13.056 0.442-19.638 0-200.622-152.708-431.964-431.958-431.964-85.736 0-165.536 25.136-232.726 68.214 11.876-1.408 23.962-2.126 36.216-2.126 71.13 0 136.59 24.276 188.55 64.994-66.434 1.22-122.5 45.122-141.824 105.432 9.274-1.768 18.784-2.722 28.566-2.722 13.846 0 27.258 1.856 39.998 5.324-69.452 13.952-121.786 75.312-121.786 148.868 0 0.64 0 1.278 0.016 1.91 20.47-11.37 43.878-18.2 68.764-18.988-40.74 27.222-67.54 73.692-67.54 126.368 0 27.822 7.488 53.904 20.556 76.324 74.878-91.854 186.748-152.292 312.924-158.628-2.588 11.118-3.93 22.702-3.93 34.604 0 83.84 67.98 151.812 151.818 151.812 43.666 0 83.124-18.436 110.818-47.94 34.58 6.808 67.074 19.442 96.412 36.84-11.336-35.454-35.41-65.206-66.752-83.994 30.71 3.668 59.968 11.832 87.194 23.904-20.35-30.448-46.090-57.186-75.758-78.594z" />
<glyph unicode="&#xe6b8;" d="M992 576h-352v352c0 17.664-14.304 32-32 32h-192c-17.696 0-32-14.336-32-32v-352h-352c-17.696 0-32-14.336-32-32v-192c0-17.696 14.304-32 32-32h352v-352c0-17.696 14.304-32 32-32h192c17.696 0 32 14.304 32 32v352h352c17.696 0 32 14.304 32 32v192c0 17.664-14.304 32-32 32z" />
<glyph unicode="&#xe6b9;" d="M32 576h960c17.696 0 32-14.336 32-32v-192c0-17.696-14.304-32-32-32h-960c-17.664 0-32 14.304-32 32v192c0 17.664 14.336 32 32 32z" />
<glyph unicode="&#xe6bf;" d="M416.154 266.138c-35.328-61.235-11.571-111.616 37.427-139.878s104.55-23.757 139.878 37.478c35.328 61.184 258.406 607.539 239.002 618.752-19.354 11.213-380.979-455.117-416.307-516.352zM512 655.258c22.426 0 44.288-1.946 65.587-5.53 22.426 28.058 47.565 58.982 71.987 88.422-43.622 12.646-89.651 19.507-137.574 19.507-287.078 0-512-242.074-512-551.117 0-19.046 0.87-38.042 2.509-56.576 2.509-28.16 27.648-48.896 55.552-46.438 28.16 2.56 48.947 27.392 46.438 55.552-1.382 15.514-2.099 31.488-2.099 47.462 0 251.597 179.968 448.717 409.6 448.717zM881.613 591.309c-14.285-38.4-29.389-77.517-42.701-111.36 52.070-75.264 82.688-169.626 82.688-273.408 0-16.23-0.717-32.563-2.15-48.384-2.56-28.16 18.176-53.043 46.336-55.654 1.587-0.154 3.123-0.205 4.71-0.205 26.163 0 48.486 20.019 50.893 46.541 1.741 18.944 2.611 38.349 2.611 57.702 0 151.091-53.862 286.157-142.387 384.768z" />
<glyph unicode="&#xe6c3;" d="M983.072 743.232l-294.304-296.096 294.304-294.336c12.32-12.288 12.32-32.224 0-44.544l-133.632-133.6c-12.256-12.32-32.192-12.32-44.512 0l-293.824 293.824-292.064-293.824c-12.288-12.32-32.224-12.32-44.544 0l-133.6 133.6c-12.288 12.32-12.288 32.256 0 44.544l292.064 293.824-292.032 292.032c-12.288 12.288-12.288 32.224 0 44.544l133.6 133.6c12.288 12.32 32.224 12.32 44.544 0l291.52-291.52 294.368 296.096c12.32 12.32 32.256 12.32 44.512 0l133.632-133.6c12.256-12.32 12.256-32.256-0.032-44.544z" />
<glyph unicode="&#xe6c4;" d="M1014.592 731.744l-90.848 90.848c-12.576 12.576-32.832 12.576-45.408 0l-464.48-490.368-266.24 266.368c-12.704 12.704-33.312 12.704-46.016 0l-92.032-92.096c-12.704-12.672-12.704-33.28 0-46.016l378.656-387.456c7.328-7.36 17.28-9.888 26.848-8.64 9.888-1.472 20.192 1.024 27.776 8.64l571.744 613.28c12.544 12.544 12.544 32.896 0 45.44z" />
<glyph unicode="&#xe6da;" d="M358.286 164.571q0-7.429-5.714-13.143l-28.571-28.571q-5.714-5.714-13.143-5.714t-13.143 5.714l-266.286 266.286q-5.714 5.714-5.714 13.143t5.714 13.143l266.286 266.286q5.714 5.714 13.143 5.714t13.143-5.714l28.571-28.571q5.714-5.714 5.714-13.143t-5.714-13.143l-224.571-224.571 224.571-224.571q5.714-5.714 5.714-13.143zM577.714 164.571q0-7.429-5.714-13.143l-28.571-28.571q-5.714-5.714-13.143-5.714t-13.143 5.714l-266.286 266.286q-5.714 5.714-5.714 13.143t5.714 13.143l266.286 266.286q5.714 5.714 13.143 5.714t13.143-5.714l28.571-28.571q5.714-5.714 5.714-13.143t-5.714-13.143l-224.571-224.571 224.571-224.571q5.714-5.714 5.714-13.143z" horiz-adv-x="585" />
<glyph unicode="&#xe6db;" d="M636.518 972.8c68.608 0 102.912-46.797 102.912-100.25 0-66.765-59.597-128.563-137.114-128.563-65.024 0-102.912 38.4-101.12 101.837 0 53.504 45.056 126.976 135.322 126.976zM425.421-51.2c-54.17 0-93.85 33.382-55.962 180.378l62.157 260.659c10.803 41.728 12.595 58.47 0 58.47-16.282 0-86.528-28.826-128.102-57.242l-27.034 45.107c131.738 111.923 283.238 177.51 348.211 177.51 54.118 0 63.078-65.126 36.096-165.325l-71.219-274.022c-12.595-48.435-7.219-65.126 5.376-65.126 16.282 0 69.478 20.122 121.805 61.85l30.72-41.728c-128.051-130.355-267.93-180.531-322.048-180.531z" />
<glyph unicode="&#xe6dc;" d="M505.702 931.789c-260.096-3.482-468.173-217.19-464.691-477.338 3.482-259.994 217.19-468.122 477.286-464.64 260.096 3.482 468.173 217.19 464.691 477.338-3.43 260.045-217.19 468.122-477.286 464.64zM557.926 774.81c47.872 0 62.003-27.75 62.003-59.546 0-39.68-31.795-76.39-86.016-76.39-45.363 0-66.918 22.835-65.638 60.518 0 31.795 26.624 75.418 89.651 75.418zM435.149 166.4c-32.717 0-56.678 19.866-33.792 107.213l37.53 154.829c6.502 24.832 7.578 34.765 0 34.765-9.779 0-52.275-17.152-77.414-34.048l-16.333 26.778c79.616 66.458 171.162 105.472 210.381 105.472 32.717 0 38.144-38.707 21.811-98.253l-43.008-162.816c-7.578-28.774-4.301-38.707 3.277-38.707 9.779 0 41.984 11.878 73.626 36.762l18.483-24.832c-77.363-77.363-161.792-107.162-194.56-107.162z" />
<glyph unicode="&#xe6dd;" d="M340 402.286q0-7.429-5.714-13.143l-266.286-266.286q-5.714-5.714-13.143-5.714t-13.143 5.714l-28.571 28.571q-5.714 5.714-5.714 13.143t5.714 13.143l224.571 224.571-224.571 224.571q-5.714 5.714-5.714 13.143t5.714 13.143l28.571 28.571q5.714 5.714 13.143 5.714t13.143-5.714l266.286-266.286q5.714-5.714 5.714-13.143zM559.429 402.286q0-7.429-5.714-13.143l-266.286-266.286q-5.714-5.714-13.143-5.714t-13.143 5.714l-28.571 28.571q-5.714 5.714-5.714 13.143t5.714 13.143l224.571 224.571-224.571 224.571q-5.714 5.714-5.714 13.143t5.714 13.143l28.571 28.571q5.714 5.714 13.143 5.714t13.143-5.714l266.286-266.286q5.714-5.714 5.714-13.143z" horiz-adv-x="585" />
<glyph unicode="&#xe6de;" d="M614.286 201.143q0-7.429-5.714-13.143l-28.571-28.571q-5.714-5.714-13.143-5.714t-13.143 5.714l-224.571 224.571-224.571-224.571q-5.714-5.714-13.143-5.714t-13.143 5.714l-28.571 28.571q-5.714 5.714-5.714 13.143t5.714 13.143l266.286 266.286q5.714 5.714 13.143 5.714t13.143-5.714l266.286-266.286q5.714-5.714 5.714-13.143zM614.286 420.571q0-7.429-5.714-13.143l-28.571-28.571q-5.714-5.714-13.143-5.714t-13.143 5.714l-224.571 224.571-224.571-224.571q-5.714-5.714-13.143-5.714t-13.143 5.714l-28.571 28.571q-5.714 5.714-5.714 13.143t5.714 13.143l266.286 266.286q5.714 5.714 13.143 5.714t13.143-5.714l266.286-266.286q5.714-5.714 5.714-13.143z" horiz-adv-x="658" />
<glyph unicode="&#xe6df;" d="M614.286 457.143q0-7.429-5.714-13.143l-266.286-266.286q-5.714-5.714-13.143-5.714t-13.143 5.714l-266.286 266.286q-5.714 5.714-5.714 13.143t5.714 13.143l28.571 28.571q5.714 5.714 13.143 5.714t13.143-5.714l224.571-224.571 224.571 224.571q5.714 5.714 13.143 5.714t13.143-5.714l28.571-28.571q5.714-5.714 5.714-13.143zM614.286 676.571q0-7.429-5.714-13.143l-266.286-266.286q-5.714-5.714-13.143-5.714t-13.143 5.714l-266.286 266.286q-5.714 5.714-5.714 13.143t5.714 13.143l28.571 28.571q5.714 5.714 13.143 5.714t13.143-5.714l224.571-224.571 224.571 224.571q5.714 5.714 13.143 5.714t13.143-5.714l28.571-28.571q5.714-5.714 5.714-13.143z" horiz-adv-x="658" />
<glyph unicode="&#xe6e0;" d="M358.286 640q0-7.429-5.714-13.143l-224.571-224.571 224.571-224.571q5.714-5.714 5.714-13.143t-5.714-13.143l-28.571-28.571q-5.714-5.714-13.143-5.714t-13.143 5.714l-266.286 266.286q-5.714 5.714-5.714 13.143t5.714 13.143l266.286 266.286q5.714 5.714 13.143 5.714t13.143-5.714l28.571-28.571q5.714-5.714 5.714-13.143z" horiz-adv-x="366" />
<glyph unicode="&#xe6e1;" d="M340 402.286q0-7.429-5.714-13.143l-266.286-266.286q-5.714-5.714-13.143-5.714t-13.143 5.714l-28.571 28.571q-5.714 5.714-5.714 13.143t5.714 13.143l224.571 224.571-224.571 224.571q-5.714 5.714-5.714 13.143t5.714 13.143l28.571 28.571q5.714 5.714 13.143 5.714t13.143-5.714l266.286-266.286q5.714-5.714 5.714-13.143z" horiz-adv-x="366" />
<glyph unicode="&#xe6e2;" d="M614.286 274.286q0-7.429-5.714-13.143l-28.571-28.571q-5.714-5.714-13.143-5.714t-13.143 5.714l-224.571 224.571-224.571-224.571q-5.714-5.714-13.143-5.714t-13.143 5.714l-28.571 28.571q-5.714 5.714-5.714 13.143t5.714 13.143l266.286 266.286q5.714 5.714 13.143 5.714t13.143-5.714l266.286-266.286q5.714-5.714 5.714-13.143z" horiz-adv-x="658" />
<glyph unicode="&#xe6e3;" d="M614.286 530.286q0-7.429-5.714-13.143l-266.286-266.286q-5.714-5.714-13.143-5.714t-13.143 5.714l-266.286 266.286q-5.714 5.714-5.714 13.143t5.714 13.143l28.571 28.571q5.714 5.714 13.143 5.714t13.143-5.714l224.571-224.571 224.571 224.571q5.714 5.714 13.143 5.714t13.143-5.714l28.571-28.571q5.714-5.714 5.714-13.143z" horiz-adv-x="658" />
<glyph unicode="&#xe6fb;" d="M512 890.88c-237.568 0-430.080-192.614-430.080-430.080 0-237.568 192.563-430.080 430.080-430.080 237.517 0 430.080 192.563 430.080 430.080 0 237.517-192.563 430.080-430.080 430.080zM600.525 460.8l156.723-156.723-88.525-88.525-156.723 156.723-156.723-156.723-88.474 88.525 156.672 156.723-156.672 156.672 88.474 88.525 156.723-156.672 156.723 156.672 88.525-88.474-156.723-156.723z" />
<glyph unicode="&#xe6fc;" d="M512 890.88c-237.568 0-430.080-192.614-430.080-430.080 0-237.568 192.563-430.080 430.080-430.080 237.517 0 430.080 192.563 430.080 430.080 0 237.517-192.563 430.080-430.080 430.080zM564.326 408.474v-206.182h-104.653v206.182h-206.234v104.653h206.182v206.234h104.704v-206.182h206.182v-104.704h-206.182z" />
<glyph unicode="&#xe6fd;" d="M512 890.88c-237.568 0-430.080-192.614-430.080-430.080 0-237.568 192.563-430.080 430.080-430.080 237.517 0 430.080 192.563 430.080 430.080 0 237.517-192.563 430.080-430.080 430.080zM770.56 513.126v-104.704h-517.12v104.704h517.12z" />
<glyph unicode="&#xe6fe;" d="M778.189 512h-532.429c-28.314 0-30.72-22.938-30.72-51.2s2.406-51.2 30.72-51.2h532.429c28.314 0 30.771 22.938 30.771 51.2s-2.458 51.2-30.771 51.2z" />
<glyph unicode="&#xe70a;" d="M217.805-39.014c15.667 51.251 39.424 123.443 71.219 227.891 138.547 22.374 195.891-17.869 283.904 142.541-71.424-22.323-157.542 41.421-152.883 69.018 4.608 27.648 200.346-19.917 328.448 165.786-161.485-36.301-213.197 43.674-192.358 55.757 48.077 27.904 190.822 11.571 266.906 87.194 39.219 38.912 57.549 133.581 41.626 167.373-19.2 40.755-136.038 101.581-200.448 95.898-64.41-5.734-165.427-250.317-195.379-248.371s-35.942 109.517 16.333 209.562c-55.142-24.883-156.16-102.349-187.853-168.55-59.034-123.187 5.53-405.658-15.155-415.744-20.736-10.035-90.419 129.69-111.206 193.024-28.416-97.075-29.082-194.355 53.965-323.584-31.334-84.787-48.435-182.374-51.046-231.987-1.229-39.731 37.018-48.23 43.93-25.805z" />
<glyph unicode="&#xe70e;" d="M519.429 153.714l58.286 58.286q10.857 10.857 10.857 25.714t-10.857 25.714l-175.429 175.429 175.429 175.429q10.857 10.857 10.857 25.714t-10.857 25.714l-58.286 58.286q-10.857 10.857-25.714 10.857t-25.714-10.857l-259.429-259.429q-10.857-10.857-10.857-25.714t10.857-25.714l259.429-259.429q10.857-10.857 25.714-10.857t25.714 10.857zM877.714 438.857q0-119.429-58.857-220.286t-159.714-159.714-220.286-58.857-220.286 58.857-159.714 159.714-58.857 220.286 58.857 220.286 159.714 159.714 220.286 58.857 220.286-58.857 159.714-159.714 58.857-220.286z" horiz-adv-x="878" />
<glyph unicode="&#xe70f;" d="M409.714 153.714l259.429 259.429q10.857 10.857 10.857 25.714t-10.857 25.714l-259.429 259.429q-10.857 10.857-25.714 10.857t-25.714-10.857l-58.286-58.286q-10.857-10.857-10.857-25.714t10.857-25.714l175.429-175.429-175.429-175.429q-10.857-10.857-10.857-25.714t10.857-25.714l58.286-58.286q10.857-10.857 25.714-10.857t25.714 10.857zM877.714 438.857q0-119.429-58.857-220.286t-159.714-159.714-220.286-58.857-220.286 58.857-159.714 159.714-58.857 220.286 58.857 220.286 159.714 159.714 220.286 58.857 220.286-58.857 159.714-159.714 58.857-220.286z" horiz-adv-x="878" />
<glyph unicode="&#xe710;" d="M665.714 300l58.286 58.286q10.857 10.857 10.857 25.714t-10.857 25.714l-259.429 259.429q-10.857 10.857-25.714 10.857t-25.714-10.857l-259.429-259.429q-10.857-10.857-10.857-25.714t10.857-25.714l58.286-58.286q10.857-10.857 25.714-10.857t25.714 10.857l175.429 175.429 175.429-175.429q10.857-10.857 25.714-10.857t25.714 10.857zM877.714 438.857q0-119.429-58.857-220.286t-159.714-159.714-220.286-58.857-220.286 58.857-159.714 159.714-58.857 220.286 58.857 220.286 159.714 159.714 220.286 58.857 220.286-58.857 159.714-159.714 58.857-220.286z" horiz-adv-x="878" />
<glyph unicode="&#xe711;" d="M464.571 208.571l259.429 259.429q10.857 10.857 10.857 25.714t-10.857 25.714l-58.286 58.286q-10.857 10.857-25.714 10.857t-25.714-10.857l-175.429-175.429-175.429 175.429q-10.857 10.857-25.714 10.857t-25.714-10.857l-58.286-58.286q-10.857-10.857-10.857-25.714t10.857-25.714l259.429-259.429q10.857-10.857 25.714-10.857t25.714 10.857zM877.714 438.857q0-119.429-58.857-220.286t-159.714-159.714-220.286-58.857-220.286 58.857-159.714 159.714-58.857 220.286 58.857 220.286 159.714 159.714 220.286 58.857 220.286-58.857 159.714-159.714 58.857-220.286z" horiz-adv-x="878" />
<glyph unicode="&#xe715;" d="M921.6 768h-51.2v-768h51.2c56.32 0 102.4 46.080 102.4 102.4v563.2c0 56.32-46.080 102.4-102.4 102.4zM0 665.6v-563.2c0-56.32 46.080-102.4 102.4-102.4h51.2v768h-51.2c-56.32 0-102.4-46.080-102.4-102.4zM686.080 875.162c-34.867 16.23-90.522 46.438-174.080 46.438s-139.213-30.208-174.080-46.438v-107.162h-112.64v-768h573.44v768h-112.64v107.162zM624.64 768h-225.28v68.352c27.29 11.776 66.458 23.808 112.64 23.808s85.299-11.981 112.64-23.757v-68.403z" />
<glyph unicode="&#xe718;" d="M956.928 340.685l-88.422 78.848c-25.6 22.835-25.6 60.109 0 82.944l88.422 78.797c25.6 22.835 18.739 44.083-15.206 47.309l-117.197 11.11c-33.946 3.226-52.224 32.41-40.55 64.87l62.208 173.158c11.674 32.461-2.611 44.288-31.693 26.266l-138.291-85.504c-29.082-18.022-66.662-8.192-83.507 21.862l-50.125 89.395c-16.794 30.054-44.646 30.208-61.798 0.358l-46.541-80.998c-17.152-29.85-56.576-42.598-87.603-28.314l-81.92 37.632c-31.078 14.234-54.938-2.253-53.094-36.762l4.454-82.688c1.843-34.458-23.603-69.99-56.525-78.848l-79.104-21.248c-32.922-8.909-38.963-34.816-13.363-57.651l88.422-78.797c25.6-22.784 25.6-60.109 0-82.893l-88.422-78.746c-25.6-22.886-18.842-44.902 15.002-48.998l107.264-13.005c33.843-4.198 52.736-34.406 41.933-67.123l-55.040-166.81c-10.803-32.819 4.608-45.619 34.202-28.416l126.106 72.909c29.645 17.203 69.427 7.68 88.474-20.89l52.378-78.694c18.995-28.723 47.616-27.085 63.437 3.482l46.029 88.678c15.923 30.618 53.914 43.11 84.429 27.802l88.781-44.39c30.618-15.309 54.118 0.41 52.275 34.918l-4.454 82.688c-1.843 34.509 23.603 69.99 56.525 78.899l79.053 21.197c33.024 8.96 39.066 34.867 13.466 57.651zM563.2 246.016h-102.4v107.52h102.4v-107.52zM563.2 409.805h-102.4v266.24h102.4v-266.24z" />
<glyph unicode="&#xe71a;" d="M585.143 438.857q0 60.571-42.857 103.429t-103.429 42.857-103.429-42.857-42.857-103.429 42.857-103.429 103.429-42.857 103.429 42.857 42.857 103.429zM877.714 501.143v-126.857q0-6.857-4.571-13.143t-11.429-7.429l-105.714-16q-10.857-30.857-22.286-52 20-28.571 61.143-78.857 5.714-6.857 5.714-14.286t-5.143-13.143q-15.429-21.143-56.571-61.714t-53.714-40.571q-6.857 0-14.857 5.143l-78.857 61.714q-25.143-13.143-52-21.714-9.143-77.714-16.571-106.286-4-16-20.571-16h-126.857q-8 0-14 4.857t-6.571 12.286l-16 105.143q-28 9.143-51.429 21.143l-80.571-61.143q-5.714-5.143-14.286-5.143-8 0-14.286 6.286-72 65.143-94.286 96-4 5.714-4 13.143 0 6.857 4.571 13.143 8.571 12 29.143 38t30.857 40.286q-15.429 28.571-23.429 56.571l-104.571 15.429q-7.429 1.143-12 7.143t-4.571 13.429v126.857q0 6.857 4.571 13.143t10.857 7.429l106.286 16q8 26.286 22.286 52.571-22.857 32.571-61.143 78.857-5.714 6.857-5.714 13.714 0 5.714 5.143 13.143 14.857 20.571 56.286 61.429t54 40.857q7.429 0 14.857-5.714l78.857-61.143q25.143 13.143 52 21.714 9.143 77.714 16.571 106.286 4 16 20.571 16h126.857q8 0 14-4.857t6.571-12.286l16-105.143q28-9.143 51.429-21.143l81.143 61.143q5.143 5.143 13.714 5.143 7.429 0 14.286-5.714 73.714-68 94.286-97.143 4-4.571 4-12.571 0-6.857-4.571-13.143-8.571-12-29.143-38t-30.857-40.286q14.857-28.571 23.429-56l104.571-16q7.429-1.143 12-7.143t4.571-13.429z" horiz-adv-x="878" />
<glyph unicode="&#xe71c;" d="M559.429 870.286q10.857 10.857 18.286 7.429t7.429-18.286v-841.143q0-14.857-7.429-18.286t-18.286 7.429l-405.714 405.714q-5.143 5.143-7.429 10.857v-387.429q0-14.857-10.857-25.714t-25.714-10.857h-73.143q-14.857 0-25.714 10.857t-10.857 25.714v804.571q0 14.857 10.857 25.714t25.714 10.857h73.143q14.857 0 25.714-10.857t10.857-25.714v-387.429q2.286 6.286 7.429 10.857z" horiz-adv-x="585" />
<glyph unicode="&#xe71d;" d="M998.286 870.286q10.857 10.857 18.286 7.429t7.429-18.286v-841.143q0-14.857-7.429-18.286t-18.286 7.429l-405.714 405.714q-5.143 5.143-7.429 10.857v-405.714q0-14.857-7.429-18.286t-18.286 7.429l-405.714 405.714q-5.143 5.143-7.429 10.857v-387.429q0-14.857-10.857-25.714t-25.714-10.857h-73.143q-14.857 0-25.714 10.857t-10.857 25.714v804.571q0 14.857 10.857 25.714t25.714 10.857h73.143q14.857 0 25.714-10.857t10.857-25.714v-387.429q2.286 6.286 7.429 10.857l405.714 405.714q10.857 10.857 18.286 7.429t7.429-18.286v-405.714q2.286 6.286 7.429 10.857z" />
<glyph unicode="&#xe71e;" d="M925.143 870.286q10.857 10.857 18.286 7.429t7.429-18.286v-841.143q0-14.857-7.429-18.286t-18.286 7.429l-405.714 405.714q-4.571 5.143-7.429 10.857v-405.714q0-14.857-7.429-18.286t-18.286 7.429l-405.714 405.714q-10.857 10.857-10.857 25.714t10.857 25.714l405.714 405.714q10.857 10.857 18.286 7.429t7.429-18.286v-405.714q2.857 6.286 7.429 10.857z" horiz-adv-x="951" />
<glyph unicode="&#xe71f;" d="M790.857 421.143l-758.857-421.714q-13.143-7.429-22.571-1.714t-9.429 20.571v841.143q0 14.857 9.429 20.571t22.571-1.714l758.857-421.714q13.143-7.429 13.143-17.714t-13.143-17.714z" horiz-adv-x="805" />
<glyph unicode="&#xe720;" d="M877.714 841.143v-804.571q0-14.857-10.857-25.714t-25.714-10.857h-292.571q-14.857 0-25.714 10.857t-10.857 25.714v804.571q0 14.857 10.857 25.714t25.714 10.857h292.571q14.857 0 25.714-10.857t10.857-25.714zM365.714 841.143v-804.571q0-14.857-10.857-25.714t-25.714-10.857h-292.571q-14.857 0-25.714 10.857t-10.857 25.714v804.571q0 14.857 10.857 25.714t25.714 10.857h292.571q14.857 0 25.714-10.857t10.857-25.714z" horiz-adv-x="878" />
<glyph unicode="&#xe721;" d="M485.235-74.669c-27.418 13.709-11.621 128.337-11.621 128.337 0 103.529-34.289 291.816-95.787 337.117-61.463 45.302-83.175 43.318-107.269 34.933 0 0-44.153 18.145-73.258-4.523s-126.824-77.016-126.824-308.012c0 0 9.099-113.845 6.35-138.514s-79.469-84.984-76.755-5.48c2.749 79.487 3.74 137.784 3.74 137.784 0 52.417-7.15 204.831 69.866 294.773s190.879 76.372 190.879 76.372c64.021 0 146.917-28.688 209.685-121.883 62.785-93.178 73.763-279.551 54.974-414.795-0.017 0-16.562-29.818-43.979-16.11zM494.96 700.799c0-131.503-175.865-187.591-220.28-187.591-44.38 0-195.959 42.709-195.959 152.432-0.017 246.219 137.314 273.027 164.14 273.027 113.045 0 252.099-106.365 252.099-237.868zM289.763 875.864c-21.781 0-125.623-61.968-125.623-165.827s88.776-141.541 104.695-141.541c15.901 0 162.487 63.638 162.487 148.239-0.017 84.566-108.905 159.13-141.559 159.13z" horiz-adv-x="537" />
<glyph unicode="&#xe722;" d="M877.714 841.143v-804.571q0-14.857-10.857-25.714t-25.714-10.857h-804.571q-14.857 0-25.714 10.857t-10.857 25.714v804.571q0 14.857 10.857 25.714t25.714 10.857h804.571q14.857 0 25.714-10.857t10.857-25.714z" horiz-adv-x="878" />
<glyph unicode="&#xe723;" d="M25.714 7.428q-10.857-10.857-18.286-7.429t-7.429 18.286v841.143q0 14.857 7.429 18.286t18.286-7.429l405.714-405.714q4.571-4.571 7.429-10.857v405.714q0 14.857 7.429 18.286t18.286-7.429l405.714-405.714q10.857-10.857 10.857-25.714t-10.857-25.714l-405.714-405.714q-10.857-10.857-18.286-7.429t-7.429 18.286v405.714q-2.857-5.714-7.429-10.857z" horiz-adv-x="951" />
<glyph unicode="&#xe724;" d="M146.286 128v-109.714q0-8-5.143-13.143t-13.143-5.143h-109.714q-8 0-13.143 5.143t-5.143 13.143v109.714q0 8 5.143 13.143t13.143 5.143h109.714q8 0 13.143-5.143t5.143-13.143zM365.714 201.143v-182.857q0-8-5.143-13.143t-13.143-5.143h-109.714q-8 0-13.143 5.143t-5.143 13.143v182.857q0 8 5.143 13.143t13.143 5.143h109.714q8 0 13.143-5.143t5.143-13.143zM585.143 347.428v-329.143q0-8-5.143-13.143t-13.143-5.143h-109.714q-8 0-13.143 5.143t-5.143 13.143v329.143q0 8 5.143 13.143t13.143 5.143h109.714q8 0 13.143-5.143t5.143-13.143zM804.571 566.857v-548.571q0-8-5.143-13.143t-13.143-5.143h-109.714q-8 0-13.143 5.143t-5.143 13.143v548.571q0 8 5.143 13.143t13.143 5.143h109.714q8 0 13.143-5.143t5.143-13.143zM1024 859.428v-841.143q0-8-5.143-13.143t-13.143-5.143h-109.714q-8 0-13.143 5.143t-5.143 13.143v841.143q0 8 5.143 13.143t13.143 5.143h109.714q8 0 13.143-5.143t5.143-13.143z" />
<glyph unicode="&#xe769;" d="M758.784 233.062c-126.208 45.978-166.554 84.787-166.554 167.885 0 49.869 38.554 33.587 55.45 124.928 7.014 37.888 41.062 0.614 47.616 87.091 0 34.458-18.586 43.059-18.586 43.059s9.472 51.046 13.158 90.266c4.506 48.947-28.262 175.309-203.469 175.309-175.155 0-208.026-126.362-203.418-175.309 3.686-39.219 13.158-90.266 13.158-90.266s-18.637-8.55-18.637-43.059c6.502-86.477 40.55-49.203 47.565-87.091 16.947-91.341 55.501-75.059 55.501-124.928 0-83.098-40.346-121.907-166.554-167.885-126.669-46.080-208.896-93.133-208.896-125.235 0-32.051 0-107.776 0-107.776h962.56c0 0 0 75.725 0 107.776s-82.278 79.104-208.896 125.235z" />
<glyph unicode="&#xe76a;" d="M81.613 702.157c24.986-13.466 371.149-199.373 384.051-206.285 12.851-6.912 29.542-10.24 46.336-10.24 16.845 0 33.536 3.328 46.387 10.291 12.902 6.912 359.014 192.819 384 206.285 25.037 13.414 48.691 55.552 2.765 55.552h-866.253c-45.926 0-22.323-42.138 2.714-55.603zM952.986 599.757c-28.416-14.848-377.19-197.171-394.598-206.285s-29.542-10.291-46.387-10.291c-16.794 0-28.928 1.178-46.336 10.291s-366.234 191.488-394.598 206.285c-20.019 10.445-19.866-1.792-19.866-11.213 0-9.421 0-375.552 0-375.552 0-21.504 28.621-49.152 50.79-49.152h820.070c22.221 0 50.739 27.648 50.739 49.101 0 0 0 366.131 0 375.552 0 9.472 0.205 21.709-19.814 11.264z" />
<glyph unicode="&#xe76b;" d="M459.059 860.262c-197.325-23.45-353.69-179.866-377.139-377.139h377.139v377.139zM566.938 859.494v-432.896c0-28.365-22.989-51.354-51.405-51.354h-432.896c27.699-211.712 208.538-375.194 427.725-375.194 238.387 0 431.718 193.229 431.718 431.718 0 219.187-163.482 400.026-375.142 427.725z" />
<glyph unicode="&#xe76c;" d="M870.4 921.6h-112.64c-28.262 0-40.96-22.938-40.96-51.2v-870.4h204.8v870.4c0 28.262-22.886 51.2-51.2 51.2zM563.2 614.4h-112.64c-28.262 0-40.96-22.938-40.96-51.2v-563.2h204.8v563.2c0 28.262-22.886 51.2-51.2 51.2zM256 307.2h-112.64c-28.262 0-40.96-22.886-40.96-51.2v-256h204.8v256c0 28.314-22.938 51.2-51.2 51.2z" />
<glyph unicode="&#xe76d;" d="M997.786 850.586l-237.005-386.099c-8.806-14.285-26.010-16.64-38.298-5.171l-114.586 107.315c-12.288 11.469-29.901 9.421-39.219-4.608l-160.922-242.688c-9.267-13.978-27.034-16.179-39.475-4.915l-74.906 68.403c-12.442 11.315-31.181 9.83-41.677-3.226l-235.981-294.298c-10.547-13.158-5.376-23.859 11.366-23.859h986.675v784.64c0.051 16.845-7.168 18.893-15.974 4.506z" />
<glyph unicode="&#xe76e;" d="M1024 10.24c0 0-1.997 193.894-13.875 213.965-17.664 29.952-58.675 50.483-134.861 82.33-75.93 31.744-100.25 58.573-100.25 115.866 0 34.458 23.194 23.194 33.382 86.221 4.198 26.163 24.678 0.461 28.621 60.109 0 23.808-11.162 29.747-11.162 29.747s5.632 35.226 7.885 62.31c2.765 33.792-17.050 120.986-122.47 120.986s-125.133-87.245-122.419-120.986c2.202-27.085 7.834-62.31 7.834-62.31s-11.162-5.939-11.162-29.747c3.942-59.699 24.422-33.997 28.672-60.109 10.138-63.027 33.331-51.763 33.331-86.221 0-38.963-11.264-63.846-42.342-85.709 165.888-83.046 188.16-99.994 188.16-174.234v-152.218h230.656zM523.469 277.76c-101.325 42.291-133.632 78.029-133.632 154.47 0 45.875 30.925 30.925 44.493 114.995 5.581 34.867 32.973 0.563 38.144 80.128 0 31.744-14.899 39.629-14.899 39.629s7.578 46.95 10.547 83.098c3.686 44.954-22.733 161.28-163.277 161.28-140.544 0-166.912-116.275-163.226-161.28 2.97-36.147 10.496-83.098 10.496-83.098s-14.848-7.885-14.848-39.629c5.274-79.616 32.563-45.312 38.195-80.128 13.568-84.070 44.493-69.069 44.493-114.995 0-76.442-32.41-112.179-133.632-154.47-30.874-12.902-86.323-32.922-86.323-80.947v-186.573h711.373c0 0 0 110.336 0 139.827 0 43.878-86.374 85.197-187.904 127.693z" />
<glyph unicode="&#xe76f;" d="M633.702 233.062c-127.539 45.978-168.294 84.787-168.294 167.885 0 49.869 38.963 33.587 56.064 124.928 7.117 37.888 41.523 0.614 48.026 87.091 0 34.458-18.739 43.059-18.739 43.059s9.574 51.046 13.261 90.266c4.608 48.947-28.57 175.309-205.619 175.309s-210.227-126.362-205.619-175.309c3.738-39.27 13.312-90.266 13.312-90.266s-18.79-8.55-18.79-43.059c6.605-86.477 41.011-49.203 48.026-87.091 17.152-91.341 56.115-75.059 56.115-124.928 0-83.098-40.806-121.907-168.346-167.885-15.36-5.478-51.968-14.080-83.098-27.546v-205.517h819.2c0 0 0 75.725 0 107.776s-57.498 79.155-185.498 125.286zM870.4 512v153.6h-102.4v-153.6h-153.6v-102.4h153.6v-153.6h102.4v153.6h153.6v102.4h-153.6z" />
<glyph unicode="&#xe770;" d="M921.6 870.4h-819.2c-56.32 0-102.4-46.080-102.4-102.4v-614.4c0-56.32 46.080-102.4 102.4-102.4h819.2c56.371 0 102.4 46.080 102.4 102.4v614.4c0 56.32-46.029 102.4-102.4 102.4zM921.6 153.6h-819.2v614.4h819.2v-614.4zM460.8 353.28h-256v-92.16h256v92.16zM460.8 506.88h-256v-92.16h256v92.16zM460.8 660.48h-256v-92.16h256v92.16zM814.080 332.8c0 0-87.040 22.733-87.040 67.482 0 42.598 56.371 60.518 56.371 147.558 0 70.656-21.504 112.64-92.211 112.64s-92.16-41.933-92.16-112.64c0-87.040 56.32-104.96 56.32-147.558 0-44.749-86.989-67.482-86.989-67.482-5.171 0-5.171-71.68-5.171-71.68h256c0 0 0 71.68-5.12 71.68z" />
<glyph unicode="&#xe771;" d="M1010.432 121.248l-383.968 768c-21.664 43.36-65.952 70.752-114.464 70.752s-92.8-27.392-114.464-70.752l-383.968-768c-19.84-39.68-17.728-86.816 5.6-124.576 23.328-37.696 64.512-60.672 108.864-60.672h767.904c44.384 0 85.568 22.976 108.864 60.672 23.328 37.76 25.44 84.896 5.632 124.576zM575.936 96c0-17.696-14.304-32-32-32h-64c-17.696 0-32 14.304-32 32v64c0 17.696 14.304 32 32 32h64c17.696 0 32-14.304 32-32v-64zM575.936 352c0-17.696-14.304-32-32-32h-64c-17.696 0-32 14.304-32 32v320c0 17.664 14.304 32 32 32h64c17.696 0 32-14.336 32-32v-320z" />
<glyph unicode="&#xe773;" d="M992.262 88.604l-242.552 206.294c-25.074 22.566-51.89 32.926-73.552 31.926 57.256 67.068 91.842 154.078 91.842 249.176 0 212.078-171.922 384-384 384-212.076 0-384-171.922-384-384 0-212.078 171.922-384 384-384 95.098 0 182.108 34.586 249.176 91.844-1-21.662 9.36-48.478 31.926-73.552l206.294-242.552c35.322-39.246 93.022-42.554 128.22-7.356s31.892 92.898-7.354 128.22zM384 320c-141.384 0-256 114.616-256 256s114.616 256 256 256 256-114.616 256-256-114.614-256-256-256z" />
<glyph unicode="&#xe774;" d="M512 896c282.77 0 512-229.23 512-512 0-192.792-106.576-360.666-264.008-448h-495.984c-157.432 87.334-264.008 255.208-264.008 448 0 282.77 229.23 512 512 512zM801.914 94.086c77.438 77.44 120.086 180.398 120.086 289.914h-90v64h85.038c-7.014 44.998-21.39 88.146-42.564 128h-106.474v64h64.284c-9.438 11.762-19.552 23.096-30.37 33.914-46.222 46.22-101.54 80.038-161.914 99.798v-69.712h-64v85.040c-20.982 3.268-42.36 4.96-64 4.96s-43.018-1.69-64-4.96v-85.040h-64v69.712c-60.372-19.76-115.692-53.576-161.914-99.798-10.818-10.818-20.932-22.152-30.37-33.914h64.284v-64h-106.476c-21.174-39.854-35.552-83.002-42.564-128h85.040v-64h-90c0-109.516 42.648-212.474 120.086-289.914 10.71-10.71 21.924-20.728 33.56-30.086h192.354l36.572 512h54.856l36.572-512h192.354c11.636 9.358 22.852 19.378 33.56 30.086z" />
<glyph unicode="&#xe775;" d="M512 960c-282.77 0-512-229.23-512-512s229.23-512 512-512 512 229.23 512 512-229.23 512-512 512zM302.836 125.848c11.106 30.632 17.164 63.688 17.164 98.152 0 124.35-78.81 230.292-189.208 270.606 10.21 84.924 48.254 163.498 109.678 224.924 72.53 72.526 168.96 112.47 271.53 112.47s199-39.944 271.53-112.47c61.428-61.426 99.468-140 109.682-224.924-110.402-40.314-189.212-146.256-189.212-270.606 0-34.468 6.060-67.52 17.166-98.15-61.706-40.242-133.77-61.85-209.166-61.85-75.394 0-147.458 21.608-209.164 61.848zM551.754 319.004c13.878-3.494 24.246-16.080 24.246-31.004v-64c0-17.6-14.4-32-32-32h-64c-17.6 0-32 14.4-32 32v64c0 14.924 10.368 27.51 24.246 31.004l23.754 448.996h32l23.754-448.996z" />
<glyph unicode="&#xe776;" d="M512 960c-282.77 0-512-229.23-512-512s229.23-512 512-512 512 229.23 512 512-229.23 512-512 512zM512 64c-212.078 0-384 171.922-384 384s171.922 384 384 384c212.078 0 384-171.922 384-384 0-212.078-171.922-384-384-384zM448 704c0 35.346 28.654 64 64 64s64-28.654 64-64c0-35.346-28.654-64-64-64-35.346 0-64 28.654-64 64zM640 640c0 35.346 28.654 64 64 64s64-28.654 64-64c0-35.346-28.654-64-64-64-35.346 0-64 28.654-64 64zM256 640c0 35.346 28.654 64 64 64s64-28.654 64-64c0-35.346-28.654-64-64-64-35.346 0-64 28.654-64 64zM448 256v-64h128v64l-64 320z" />
<glyph unicode="&#xe777;" d="M321.008-64c-68.246 142.008-31.902 223.378 20.55 300.044 57.44 83.956 72.244 167.066 72.244 167.066 0 0 45.154-58.7 27.092-150.508 79.772 88.8 94.824 230.28 82.782 284.464 180.314-126.012 257.376-398.856 153.522-601.066 552.372 312.532 137.398 780.172 65.154 832.85 24.082-52.676 28.648-141.85-20-185.126-82.352 312.276-285.972 376.276-285.972 376.276 24.082-161.044-87.296-337.144-194.696-468.73-3.774 64.216-7.782 108.528-41.55 169.98-7.58-116.656-96.732-211.748-120.874-328.628-32.702-158.286 24.496-274.18 241.748-396.622z" />
<glyph unicode="&#xe778;" d="M192-64h640l64 704h-768zM640 832v128h-256v-128h-320v-192l64 64h768l64-64v192h-320zM576 832h-128v64h128v-64z" />
<glyph unicode="&#xe779;" d="M480 960v0c265.096 0 480-173.914 480-388.448s-214.904-388.448-480-388.448c-25.458 0-50.446 1.62-74.834 4.71-103.106-102.694-222.172-121.108-341.166-123.814v25.134c64.252 31.354 116 88.466 116 153.734 0 9.106-0.712 18.048-2.030 26.794-108.558 71.214-177.97 179.988-177.97 301.89 0 214.534 214.904 388.448 480 388.448zM996 89.314c0-55.942 36.314-104.898 92-131.772v-21.542c-103.126 2.318-197.786 18.102-287.142 106.126-21.14-2.65-42.794-4.040-64.858-4.040-95.47 0-183.408 25.758-253.614 69.040 144.674 0.506 281.26 46.854 384.834 130.672 52.208 42.252 93.394 91.826 122.414 147.348 30.766 58.866 46.366 121.582 46.366 186.406 0 10.448-0.45 20.836-1.258 31.168 72.57-59.934 117.258-141.622 117.258-231.676 0-104.488-60.158-197.722-154.24-258.764-1.142-7.496-1.76-15.16-1.76-22.966z" horiz-adv-x="1152" />
<glyph unicode="&#xe77a;" d="M512 768c-54.932 0-107.988-8.662-157.694-25.742-46.712-16.054-88.306-38.744-123.628-67.444-66.214-53.798-102.678-122.984-102.678-194.814 0-40.298 11.188-79.378 33.252-116.152 22.752-37.92 56.982-72.586 98.988-100.252 30.356-19.992 50.78-51.948 56.176-87.894 1.8-11.984 2.928-24.088 3.37-36.124 7.47 6.194 14.75 12.846 21.88 19.976 24.154 24.152 56.78 37.49 90.502 37.49 5.368 0 10.762-0.336 16.156-1.024 20.974-2.666 42.398-4.020 63.676-4.020 54.934 0 107.988 8.66 157.694 25.742 46.712 16.054 88.306 38.744 123.628 67.444 66.214 53.796 102.678 122.984 102.678 194.814 0 71.83-36.464 141.016-102.678 194.814-35.322 28.698-76.916 51.39-123.628 67.444-49.706 17.080-102.76 25.742-157.694 25.742zM512 896v0c282.77 0 512-186.25 512-416 0-229.752-229.23-416-512-416-27.156 0-53.81 1.734-79.824 5.044-109.978-109.978-241.25-129.7-368.176-132.596v26.916c68.536 33.578 128 94.74 128 164.636 0 9.754-0.758 19.33-2.164 28.696-115.796 76.264-189.836 192.754-189.836 323.304 0 229.75 229.23 416 512 416z" />
<glyph unicode="&#xe77b;" d="M1088 58.834c0-45.5 26.028-84.908 64-104.184v-15.938c-10.626-1.454-21.472-2.224-32.5-2.224-68.008 0-129.348 28.528-172.722 74.264-26.222-6.982-54.002-10.752-82.778-10.752-159.058 0-288 114.616-288 256 0 141.384 128.942 256 288 256 159.058 0 288-114.616 288-256 0-55.348-19.764-106.592-53.356-148.466-6.824-14.824-10.644-31.312-10.644-48.7zM230.678 738.814c-66.214-53.798-102.678-122.984-102.678-194.814 0-40.298 11.188-79.378 33.252-116.15 22.752-37.92 56.982-72.586 98.988-100.252 30.356-19.992 50.78-51.948 56.176-87.894 1.8-11.984 2.928-24.088 3.37-36.124 7.47 6.194 14.75 12.846 21.88 19.976 24.154 24.152 56.78 37.49 90.502 37.49 5.368 0 10.762-0.336 16.156-1.024 20.948-2.662 42.344-4.016 63.594-4.020v-128c-27.128 0.002-53.754 1.738-79.742 5.042-109.978-109.978-241.25-129.7-368.176-132.596v26.916c68.536 33.578 128 94.74 128 164.636 0 9.754-0.758 19.33-2.164 28.696-115.796 76.264-189.836 192.754-189.836 323.304 0 229.75 229.23 416 512 416 278.458 0 504.992-180.614 511.836-405.52-41.096 18.316-85.84 29.422-132.262 32.578-11.53 56.068-45.402 108.816-98.252 151.756-35.322 28.698-76.916 51.39-123.628 67.444-49.706 17.080-102.76 25.742-157.694 25.742-54.932 0-107.988-8.662-157.694-25.742-46.712-16.054-88.306-38.744-123.628-67.444z" horiz-adv-x="1152" />
<glyph unicode="&#xe77c;" d="M480 832c-50.666 0-99.582-7.95-145.386-23.628-42.924-14.694-81.114-35.436-113.502-61.646-60.044-48.59-93.112-110.802-93.112-175.174 0-35.99 10.066-70.948 29.92-103.898 20.686-34.34 51.898-65.794 90.26-90.958 30.44-19.968 50.936-51.952 56.362-87.95 0.902-5.99 1.63-12.006 2.18-18.032 2.722 2.52 5.424 5.114 8.114 7.794 24.138 24.040 56.688 37.312 90.322 37.312 5.348 0 10.718-0.336 16.094-1.018 19.36-2.452 39.124-3.696 58.748-3.696 50.666 0 99.58 7.948 145.384 23.628 42.926 14.692 81.116 35.434 113.504 61.644 60.046 48.59 93.112 110.802 93.112 175.174 0 64.372-33.066 126.582-93.112 175.174-32.388 26.212-70.578 46.952-113.504 61.646-45.804 15.678-94.718 23.628-145.384 23.628zM480 960v0c265.096 0 480-173.914 480-388.448s-214.904-388.448-480-388.448c-25.458 0-50.446 1.62-74.834 4.71-103.106-102.694-222.172-121.108-341.166-123.814v25.134c64.252 31.354 116 88.466 116 153.734 0 9.106-0.712 18.048-2.030 26.794-108.558 71.214-177.97 179.988-177.97 301.89 0 214.534 214.904 388.448 480 388.448zM996 89.314c0-55.942 36.314-104.898 92-131.772v-21.542c-103.126 2.318-197.786 18.102-287.142 106.126-21.14-2.65-42.794-4.040-64.858-4.040-95.47 0-183.408 25.758-253.614 69.040 144.674 0.506 281.26 46.854 384.834 130.672 52.208 42.252 93.394 91.826 122.414 147.348 30.766 58.866 46.366 121.582 46.366 186.406 0 10.448-0.45 20.836-1.258 31.168 72.57-59.934 117.258-141.622 117.258-231.676 0-104.488-60.158-197.722-154.24-258.764-1.142-7.496-1.76-15.16-1.76-22.966z" horiz-adv-x="1152" />
<glyph unicode="&#xe77d;" d="M1088 58.834c0-45.5 26.028-84.908 64-104.184v-15.938c-10.626-1.454-21.472-2.224-32.5-2.224-68.008 0-129.348 28.528-172.722 74.264-26.222-6.982-54.002-10.752-82.778-10.752-159.058 0-288 114.616-288 256 0 141.384 128.942 256 288 256 159.058 0 288-114.616 288-256 0-55.348-19.764-106.592-53.356-148.466-6.824-14.824-10.644-31.312-10.644-48.7zM512 960c278.458 0 504.992-180.614 511.836-405.52-49.182 21.92-103.586 33.52-159.836 33.52-95.56 0-185.816-33.446-254.138-94.178-70.846-62.972-109.862-147.434-109.862-237.822 0-44.672 9.544-87.888 27.736-127.788-5.228-0.126-10.468-0.212-15.736-0.212-27.156 0-53.81 1.734-79.824 5.044-109.978-109.978-241.25-129.7-368.176-132.596v26.916c68.536 33.578 128 94.74 128 164.636 0 9.754-0.758 19.33-2.164 28.696-115.796 76.264-189.836 192.754-189.836 323.304 0 229.75 229.23 416 512 416z" horiz-adv-x="1152" />
<glyph unicode="&#xe77e;" d="M512 896c282.77 0 512-186.25 512-416 0-229.752-229.23-416-512-416-27.156 0-53.81 1.734-79.824 5.044-109.978-109.978-241.25-129.7-368.176-132.596v26.916c68.536 33.578 128 94.74 128 164.636 0 9.754-0.758 19.33-2.164 28.696-115.796 76.264-189.836 192.754-189.836 323.304 0 229.75 229.23 416 512 416z" />
<glyph unicode="&#xe77f;" d="M384 832c0 70.692 57.308 128 128 128s128-57.308 128-128c0-70.692-57.308-128-128-128-70.692 0-128 57.308-128 128zM655.53 719.53c0 70.692 57.308 128 128 128s128-57.308 128-128c0-70.692-57.308-128-128-128-70.692 0-128 57.308-128 128zM832 448c0 35.346 28.654 64 64 64s64-28.654 64-64c0-35.346-28.654-64-64-64-35.346 0-64 28.654-64 64zM719.53 176.47c0 35.346 28.654 64 64 64s64-28.654 64-64c0-35.346-28.654-64-64-64-35.346 0-64 28.654-64 64zM448.002 64c0 0 0 0 0 0 0 35.346 28.654 64 64 64 35.346 0 64-28.654 64-64 0 0 0 0 0 0 0-35.346-28.654-64-64-64-35.346 0-64 28.654-64 64zM176.472 176.47c0 0 0 0 0 0 0 35.346 28.654 64 64 64 35.346 0 64-28.654 64-64 0 0 0 0 0 0 0-35.346-28.654-64-64-64-35.346 0-64 28.654-64 64zM144.472 719.53c0 0 0 0 0 0 0 53.019 42.981 96 96 96 53.019 0 96-42.981 96-96 0 0 0 0 0 0 0-53.019-42.981-96-96-96-53.019 0-96 42.981-96 96zM56 448c0 39.765 32.235 72 72 72s72-32.235 72-72c0-39.765-32.235-72-72-72-39.765 0-72 32.235-72 72z" />
<glyph unicode="&#xe780;" d="M448 384v448c-247.424 0-448-200.576-448-448s200.576-448 448-448 448 200.576 448 448c0 72.034-17.028 140.084-47.236 200.382l-400.764-200.382zM912.764 712.382c-73.552 146.816-225.374 247.618-400.764 247.618v-448l400.764 200.382z" />
<glyph unicode="&#xe781;" d="M128 64h896v-128h-1024v1024h128zM288 128c-53.020 0-96 42.98-96 96s42.98 96 96 96c2.828 0 5.622-0.148 8.388-0.386l103.192 171.986c-9.84 15.070-15.58 33.062-15.58 52.402 0 53.020 42.98 96 96 96 53.020 0 96-42.98 96-96 0-19.342-5.74-37.332-15.58-52.402l103.192-171.986c2.766 0.238 5.56 0.386 8.388 0.386 2.136 0 4.248-0.094 6.35-0.23l170.356 298.122c-10.536 15.408-16.706 34.036-16.706 54.11 0 53.020 42.98 96 96 96 53.020 0 96-42.98 96-96 0-53.020-42.98-96-96-96-2.14 0-4.248 0.094-6.35 0.232l-170.356-298.124c10.536-15.406 16.706-34.036 16.706-54.11 0-53.020-42.98-96-96-96-53.020 0-96 42.98-96 96 0 19.34 5.74 37.332 15.578 52.402l-103.19 171.984c-2.766-0.238-5.56-0.386-8.388-0.386s-5.622 0.146-8.388 0.386l-103.192-171.986c9.84-15.068 15.58-33.060 15.58-52.4 0-53.020-42.98-96-96-96z" />
<glyph unicode="&#xe782;" d="M0 128h1024v-128h-1024zM128 384h128v-192h-128zM320 640h128v-448h-128zM512 448h128v-256h-128zM704 832h128v-640h-128z" />
<glyph unicode="&#xe783;" d="M800 832h-576c-53.020 0-96-42.98-96-96v-32h768v32c0 53.020-42.98 96-96 96zM632.32 896l14.116-101h-268.872l14.114 101h240.642zM640 960h-256c-26.4 0-50.99-21.392-54.642-47.538l-18.714-133.924c-3.654-26.146 14.956-47.538 41.356-47.538h320c26.4 0 45.010 21.392 41.358 47.538l-18.714 133.924c-3.654 26.146-28.244 47.538-54.644 47.538v0zM816 640h-608c-35.2 0-61.392-28.682-58.206-63.738l52.412-576.526c3.186-35.054 34.594-63.736 69.794-63.736h480c35.2 0 66.608 28.682 69.794 63.736l52.41 576.526c3.188 35.056-23.004 63.738-58.204 63.738zM384 64h-96l-32 448h128v-448zM576 64h-128v448h128v-448zM736 64h-96v448h128l-32-448z" />
<glyph unicode="&#xe784;" d="M448 832v16c0 26.4-21.6 48-48 48h-160c-26.4 0-48-21.6-48-48v-16h-192v-128h192v-16c0-26.4 21.6-48 48-48h160c26.4 0 48 21.6 48 48v16h576v128h-576zM256 704v128h128v-128h-128zM832 528c0 26.4-21.6 48-48 48h-160c-26.4 0-48-21.6-48-48v-16h-576v-128h576v-16c0-26.4 21.6-48 48-48h160c26.4 0 48 21.6 48 48v16h192v128h-192v16zM640 384v128h128v-128h-128zM448 208c0 26.4-21.6 48-48 48h-160c-26.4 0-48-21.6-48-48v-16h-192v-128h192v-16c0-26.4 21.6-48 48-48h160c26.4 0 48 21.6 48 48v16h576v128h-576v16zM256 64v128h128v-128h-128z" />
<glyph unicode="&#xe785;" d="M896 512h16c26.4 0 48 21.6 48 48v160c0 26.4-21.6 48-48 48h-16v192h-128v-192h-16c-26.4 0-48-21.6-48-48v-160c0-26.4 21.6-48 48-48h16v-576h128v576zM768 704h128v-128h-128v128zM592 128c26.4 0 48 21.6 48 48v160c0 26.4-21.6 48-48 48h-16v576h-128v-576h-16c-26.4 0-48-21.6-48-48v-160c0-26.4 21.6-48 48-48h16v-192h128v192h16zM448 320h128v-128h-128v128zM272 512c26.4 0 48 21.6 48 48v160c0 26.4-21.6 48-48 48h-16v192h-128v-192h-16c-26.4 0-48-21.6-48-48v-160c0-26.4 21.6-48 48-48h16v-576h128v576h16zM128 704h128v-128h-128v128z" />
<glyph unicode="&#xe786;" d="M512 960c-282.77 0-512-229.23-512-512s229.23-512 512-512 512 229.23 512 512-229.23 512-512 512zM416 128l-212 276 94 98 118-150 370 302 46-46-416-480z" />
<glyph unicode="&#xe787;" d="M512 960c-282.77 0-512-229.23-512-512s229.23-512 512-512 512 229.23 512 512-229.23 512-512 512zM768 613.49l-165.488-165.49 165.488-165.488v-90.512h-90.512l-165.488 165.488-165.49-165.488h-90.51v90.512l165.49 165.488-165.49 165.49v90.51h90.51l165.49-165.49 165.488 165.49h90.512v-90.51z" />
<glyph unicode="&#xe788;" d="M1024 224l-288 736h-448l-288-288v-448l288-288h448l288 288v448l-288 288zM576 128h-128v128h128v-128zM576 384h-128v384h128v-384z" />
<glyph unicode="&#xe78a;" d="M68.032 921.984c40.896 40.992 164.512 47.84 165.44 26.144 0.928-21.664 111.328-262.112 112.288-283.808 0.96-21.664-72.768-95.584-94.336-117.216-21.376-21.408 144.256-209.056 147.392-212.608 3.52-3.168 190.72-169.184 212.096-147.744 21.568 21.632 95.328 95.52 116.896 94.56 21.632-0.928 261.536-111.584 283.168-112.576 21.632-0.928 14.816-124.8-26.080-165.824-34.976-35.040-216.064-162.272-530.944 64.928-34.528 19.904-89.216 65.568-172.16 148.672-0.032 0.032-0.096 0.096-0.16 0.128-0.064 0.096-0.128 0.128-0.192 0.192s-0.128 0.128-0.192 0.192c-0.032 0.064-0.096 0.128-0.128 0.16-82.88 83.136-128.448 137.984-148.32 172.576-226.656 315.648-99.712 497.184-64.768 532.224z" />
<glyph unicode="&#xe78b;" d="M576 512v448c265.088 0 448-182.912 448-448h-448zM480-64c-265.088 0-480 214.912-480 480 0 289.088 210.912 480 512 480v-448h448c0-265.088-214.912-512-480-512z" />
<glyph unicode="&#xe78c;" d="M960 960h-896c-35.328 0-64-28.672-64-64v-640c0-35.328 28.672-64 64-64h256l-128-256h32l230.4 256h115.2l230.4-256h32l-128 256h256c35.328 0 64 28.672 64 64v640c0 35.328-28.672 64-64 64zM960 288c0-17.696-14.304-32-32-32h-832c-17.696 0-32 14.304-32 32v576c0 17.696 14.304 32 32 32h832c17.696 0 32-14.304 32-32v-576zM668.096 459.808l-144.672 372.128-158.016-297.28-88.192 90.72-149.216-92.992 42.112-24.256 95.616 59.584 115.36-118.784 133.6 251.296 147.712-380.128 125.984 265.216 51.328-109.248 56.288 9.44-107.328 228.224-120.576-253.92z" />
<glyph unicode="&#xe78d;" d="M1023.872 959.776l-874.912-545.152 331.712 0.256-480.544-478.656 958.816 610.24-329.92-0.224 394.848 413.536z" />
<glyph unicode="&#xe78e;" d="M320 768c0 106.039 85.961 192 192 192s192-85.961 192-192c0-106.039-85.961-192-192-192-106.039 0-192 85.961-192 192zM768.078 512h-35.424l-199.104-404.244 74.45 372.244-96 96-96-96 74.45-372.244-199.102 404.244h-35.424c-127.924 0-127.924-85.986-127.924-192v-320h768v320c0 106.014 0 192-127.922 192z" />
<glyph unicode="&#xe791;" d="M640 576l-192-320-127.040 92.672-0.96 3.328-7.552 2.912 5.888-4.32-190.336-158.592v-64h768v64l-96 288-160 96zM288 544c52.992 0 96 42.976 96 96s-43.008 96-96 96-96-42.976-96-96 43.008-96 96-96zM992 896h-960c-17.664 0-32-14.336-32-32v-832c0-17.696 14.336-32 32-32h960c17.696 0 32 14.304 32 32v832c0 17.664-14.304 32-32 32zM960 96c0-17.696-14.304-32-32-32h-832c-17.664 0-32 14.304-32 32v704c0 17.664 14.336 32 32 32h832c17.696 0 32-14.336 32-32v-704z" />
</font></defs></svg>